^D:\WORKSPACE\PROJECTS\PONG\PONG\PONG\PADDLE.CPP
/c /I"D:\WORKSPACE\PROJECTS\PONG\PONG\LIB\SFML-2.5.1\INCLUDE" /ZI /JMC /nologo /W3 /WX- /diagnostics:classic /sdl /Od /D SFML_STATIC /D _MBCS /D _MBCS /Gm- /EHsc /RTC1 /MDd /GS /fp:precise /permissive- /Zc:wchar_t /Zc:forScope /Zc:inline /Fo"X64\DEBUG\\" /Fd"X64\DEBUG\VC141.PDB" /Gd /TP /FC D:\WORKSPACE\PROJECTS\PONG\PONG\PONG\PADDLE.CPP
^D:\WORKSPACE\PROJECTS\PONG\PONG\UTIL.CPP
/c /I"D:\WORKSPACE\PROJECTS\PONG\PONG\LIB\SFML-2.5.1\INCLUDE" /ZI /JMC /nologo /W3 /WX- /diagnostics:classic /sdl /Od /D SFML_STATIC /D _MBCS /D _MBCS /Gm- /EHsc /RTC1 /MDd /GS /fp:precise /permissive- /Zc:wchar_t /Zc:forScope /Zc:inline /Fo"X64\DEBUG\\" /Fd"X64\DEBUG\VC141.PDB" /Gd /TP /FC D:\WORKSPACE\PROJECTS\PONG\PONG\UTIL.CPP
^D:\WORKSPACE\PROJECTS\PONG\PONG\MAIN.CPP
/c /I"D:\WORKSPACE\PROJECTS\PONG\PONG\LIB\SFML-2.5.1\INCLUDE" /ZI /JMC /nologo /W3 /WX- /diagnostics:classic /sdl /Od /D SFML_STATIC /D _MBCS /D _MBCS /Gm- /EHsc /RTC1 /MDd /GS /fp:precise /permissive- /Zc:wchar_t /Zc:forScope /Zc:inline /Fo"X64\DEBUG\\" /Fd"X64\DEBUG\VC141.PDB" /Gd /TP /FC D:\WORKSPACE\PROJECTS\PONG\PONG\MAIN.CPP
^D:\WORKSPACE\PROJECTS\PONG\PONG\PONG\BALL.CPP
/c /I"D:\WORKSPACE\PROJECTS\PONG\PONG\LIB\SFML-2.5.1\INCLUDE" /ZI /JMC /nologo /W3 /WX- /diagnostics:classic /sdl /Od /D SFML_STATIC /D _MBCS /D _MBCS /Gm- /EHsc /RTC1 /MDd /GS /fp:precise /permissive- /Zc:wchar_t /Zc:forScope /Zc:inline /Fo"X64\DEBUG\\" /Fd"X64\DEBUG\VC141.PDB" /Gd /TP /FC D:\WORKSPACE\PROJECTS\PONG\PONG\PONG\BALL.CPP
