^D:\WORKSPACE\PROJECTS\PONG\PONG\PONG\PADDLE.CPP
D:\WORKSPACE\PROJECTS\PONG\PONG\PONG\PADDLE.H
D:\WORKSPACE\PROJECTS\PONG\PONG\LIB\SFML-2.5.1\INCLUDE\SFML\GRAPHICS.HPP
D:\WORKSPACE\PROJECTS\PONG\PONG\LIB\SFML-2.5.1\INCLUDE\SFML\WINDOW.HPP
D:\WORKSPACE\PROJECTS\PONG\PONG\LIB\SFML-2.5.1\INCLUDE\SFML\SYSTEM.HPP
D:\WORKSPACE\PROJECTS\PONG\PONG\LIB\SFML-2.5.1\INCLUDE\SFML\CONFIG.HPP
D:\WORKSPACE\PROJECTS\PONG\PONG\LIB\SFML-2.5.1\INCLUDE\SFML\SYSTEM\CLOCK.HPP
D:\WORKSPACE\PROJECTS\PONG\PONG\LIB\SFML-2.5.1\INCLUDE\SFML\SYSTEM\EXPORT.HPP
D:\WORKSPACE\PROJECTS\PONG\PONG\LIB\SFML-2.5.1\INCLUDE\SFML\SYSTEM\TIME.HPP
D:\WORKSPACE\PROJECTS\PONG\PONG\LIB\SFML-2.5.1\INCLUDE\SFML\SYSTEM\ERR.HPP
C:\PROGRAM FILES (X86)\MICROSOFT VISUAL STUDIO\2017\COMMUNITY\VC\TOOLS\MSVC\14.16.27023\INCLUDE\OSTREAM
C:\PROGRAM FILES (X86)\MICROSOFT VISUAL STUDIO\2017\COMMUNITY\VC\TOOLS\MSVC\14.16.27023\INCLUDE\IOS
C:\PROGRAM FILES (X86)\MICROSOFT VISUAL STUDIO\2017\COMMUNITY\VC\TOOLS\MSVC\14.16.27023\INCLUDE\XLOCNUM
C:\PROGRAM FILES (X86)\MICROSOFT VISUAL STUDIO\2017\COMMUNITY\VC\TOOLS\MSVC\14.16.27023\INCLUDE\CLIMITS
C:\PROGRAM FILES (X86)\MICROSOFT VISUAL STUDIO\2017\COMMUNITY\VC\TOOLS\MSVC\14.16.27023\INCLUDE\YVALS.H
C:\PROGRAM FILES (X86)\MICROSOFT VISUAL STUDIO\2017\COMMUNITY\VC\TOOLS\MSVC\14.16.27023\INCLUDE\YVALS_CORE.H
C:\PROGRAM FILES (X86)\MICROSOFT VISUAL STUDIO\2017\COMMUNITY\VC\TOOLS\MSVC\14.16.27023\INCLUDE\XKEYCHECK.H
C:\PROGRAM FILES (X86)\MICROSOFT VISUAL STUDIO\2017\COMMUNITY\VC\TOOLS\MSVC\14.16.27023\INCLUDE\CRTDEFS.H
C:\PROGRAM FILES (X86)\MICROSOFT VISUAL STUDIO\2017\COMMUNITY\VC\TOOLS\MSVC\14.16.27023\INCLUDE\VCRUNTIME.H
C:\PROGRAM FILES (X86)\MICROSOFT VISUAL STUDIO\2017\COMMUNITY\VC\TOOLS\MSVC\14.16.27023\INCLUDE\SAL.H
C:\PROGRAM FILES (X86)\MICROSOFT VISUAL STUDIO\2017\COMMUNITY\VC\TOOLS\MSVC\14.16.27023\INCLUDE\CONCURRENCYSAL.H
C:\PROGRAM FILES (X86)\MICROSOFT VISUAL STUDIO\2017\COMMUNITY\VC\TOOLS\MSVC\14.16.27023\INCLUDE\VADEFS.H
C:\PROGRAM FILES (X86)\WINDOWS KITS\10\INCLUDE\10.0.16299.0\UCRT\CORECRT.H
C:\PROGRAM FILES (X86)\WINDOWS KITS\10\INCLUDE\10.0.16299.0\UCRT\CRTDBG.H
C:\PROGRAM FILES (X86)\MICROSOFT VISUAL STUDIO\2017\COMMUNITY\VC\TOOLS\MSVC\14.16.27023\INCLUDE\VCRUNTIME_NEW_DEBUG.H
C:\PROGRAM FILES (X86)\MICROSOFT VISUAL STUDIO\2017\COMMUNITY\VC\TOOLS\MSVC\14.16.27023\INCLUDE\VCRUNTIME_NEW.H
C:\PROGRAM FILES (X86)\MICROSOFT VISUAL STUDIO\2017\COMMUNITY\VC\TOOLS\MSVC\14.16.27023\INCLUDE\USE_ANSI.H
C:\PROGRAM FILES (X86)\MICROSOFT VISUAL STUDIO\2017\COMMUNITY\VC\TOOLS\MSVC\14.16.27023\INCLUDE\LIMITS.H
C:\PROGRAM FILES (X86)\MICROSOFT VISUAL STUDIO\2017\COMMUNITY\VC\TOOLS\MSVC\14.16.27023\INCLUDE\CMATH
C:\PROGRAM FILES (X86)\MICROSOFT VISUAL STUDIO\2017\COMMUNITY\VC\TOOLS\MSVC\14.16.27023\INCLUDE\CSTDLIB
C:\PROGRAM FILES (X86)\WINDOWS KITS\10\INCLUDE\10.0.16299.0\UCRT\STDLIB.H
C:\PROGRAM FILES (X86)\WINDOWS KITS\10\INCLUDE\10.0.16299.0\UCRT\CORECRT_MALLOC.H
C:\PROGRAM FILES (X86)\WINDOWS KITS\10\INCLUDE\10.0.16299.0\UCRT\CORECRT_SEARCH.H
C:\PROGRAM FILES (X86)\WINDOWS KITS\10\INCLUDE\10.0.16299.0\UCRT\STDDEF.H
C:\PROGRAM FILES (X86)\WINDOWS KITS\10\INCLUDE\10.0.16299.0\UCRT\CORECRT_WSTDLIB.H
C:\PROGRAM FILES (X86)\WINDOWS KITS\10\INCLUDE\10.0.16299.0\UCRT\MATH.H
C:\PROGRAM FILES (X86)\WINDOWS KITS\10\INCLUDE\10.0.16299.0\UCRT\CORECRT_MATH.H
C:\PROGRAM FILES (X86)\MICROSOFT VISUAL STUDIO\2017\COMMUNITY\VC\TOOLS\MSVC\14.16.27023\INCLUDE\XTGMATH.H
C:\PROGRAM FILES (X86)\MICROSOFT VISUAL STUDIO\2017\COMMUNITY\VC\TOOLS\MSVC\14.16.27023\INCLUDE\XTR1COMMON
C:\PROGRAM FILES (X86)\MICROSOFT VISUAL STUDIO\2017\COMMUNITY\VC\TOOLS\MSVC\14.16.27023\INCLUDE\CSTDIO
C:\PROGRAM FILES (X86)\WINDOWS KITS\10\INCLUDE\10.0.16299.0\UCRT\STDIO.H
C:\PROGRAM FILES (X86)\WINDOWS KITS\10\INCLUDE\10.0.16299.0\UCRT\CORECRT_WSTDIO.H
C:\PROGRAM FILES (X86)\WINDOWS KITS\10\INCLUDE\10.0.16299.0\UCRT\CORECRT_STDIO_CONFIG.H
C:\PROGRAM FILES (X86)\MICROSOFT VISUAL STUDIO\2017\COMMUNITY\VC\TOOLS\MSVC\14.16.27023\INCLUDE\STREAMBUF
C:\PROGRAM FILES (X86)\MICROSOFT VISUAL STUDIO\2017\COMMUNITY\VC\TOOLS\MSVC\14.16.27023\INCLUDE\XIOSBASE
C:\PROGRAM FILES (X86)\MICROSOFT VISUAL STUDIO\2017\COMMUNITY\VC\TOOLS\MSVC\14.16.27023\INCLUDE\XLOCALE
C:\PROGRAM FILES (X86)\MICROSOFT VISUAL STUDIO\2017\COMMUNITY\VC\TOOLS\MSVC\14.16.27023\INCLUDE\CSTRING
C:\PROGRAM FILES (X86)\WINDOWS KITS\10\INCLUDE\10.0.16299.0\UCRT\STRING.H
C:\PROGRAM FILES (X86)\WINDOWS KITS\10\INCLUDE\10.0.16299.0\UCRT\CORECRT_MEMORY.H
C:\PROGRAM FILES (X86)\WINDOWS KITS\10\INCLUDE\10.0.16299.0\UCRT\CORECRT_MEMCPY_S.H
C:\PROGRAM FILES (X86)\WINDOWS KITS\10\INCLUDE\10.0.16299.0\UCRT\ERRNO.H
C:\PROGRAM FILES (X86)\MICROSOFT VISUAL STUDIO\2017\COMMUNITY\VC\TOOLS\MSVC\14.16.27023\INCLUDE\VCRUNTIME_STRING.H
C:\PROGRAM FILES (X86)\WINDOWS KITS\10\INCLUDE\10.0.16299.0\UCRT\CORECRT_WSTRING.H
C:\PROGRAM FILES (X86)\MICROSOFT VISUAL STUDIO\2017\COMMUNITY\VC\TOOLS\MSVC\14.16.27023\INCLUDE\STDEXCEPT
C:\PROGRAM FILES (X86)\MICROSOFT VISUAL STUDIO\2017\COMMUNITY\VC\TOOLS\MSVC\14.16.27023\INCLUDE\EXCEPTION
C:\PROGRAM FILES (X86)\MICROSOFT VISUAL STUDIO\2017\COMMUNITY\VC\TOOLS\MSVC\14.16.27023\INCLUDE\TYPE_TRAITS
C:\PROGRAM FILES (X86)\MICROSOFT VISUAL STUDIO\2017\COMMUNITY\VC\TOOLS\MSVC\14.16.27023\INCLUDE\XSTDDEF
C:\PROGRAM FILES (X86)\MICROSOFT VISUAL STUDIO\2017\COMMUNITY\VC\TOOLS\MSVC\14.16.27023\INCLUDE\CSTDDEF
C:\PROGRAM FILES (X86)\MICROSOFT VISUAL STUDIO\2017\COMMUNITY\VC\TOOLS\MSVC\14.16.27023\INCLUDE\INITIALIZER_LIST
C:\PROGRAM FILES (X86)\WINDOWS KITS\10\INCLUDE\10.0.16299.0\UCRT\MALLOC.H
C:\PROGRAM FILES (X86)\MICROSOFT VISUAL STUDIO\2017\COMMUNITY\VC\TOOLS\MSVC\14.16.27023\INCLUDE\VCRUNTIME_EXCEPTION.H
C:\PROGRAM FILES (X86)\MICROSOFT VISUAL STUDIO\2017\COMMUNITY\VC\TOOLS\MSVC\14.16.27023\INCLUDE\EH.H
C:\PROGRAM FILES (X86)\WINDOWS KITS\10\INCLUDE\10.0.16299.0\UCRT\CORECRT_TERMINATE.H
C:\PROGRAM FILES (X86)\MICROSOFT VISUAL STUDIO\2017\COMMUNITY\VC\TOOLS\MSVC\14.16.27023\INCLUDE\XSTRING
C:\PROGRAM FILES (X86)\MICROSOFT VISUAL STUDIO\2017\COMMUNITY\VC\TOOLS\MSVC\14.16.27023\INCLUDE\XMEMORY0
C:\PROGRAM FILES (X86)\MICROSOFT VISUAL STUDIO\2017\COMMUNITY\VC\TOOLS\MSVC\14.16.27023\INCLUDE\CSTDINT
C:\PROGRAM FILES (X86)\MICROSOFT VISUAL STUDIO\2017\COMMUNITY\VC\TOOLS\MSVC\14.16.27023\INCLUDE\STDINT.H
C:\PROGRAM FILES (X86)\MICROSOFT VISUAL STUDIO\2017\COMMUNITY\VC\TOOLS\MSVC\14.16.27023\INCLUDE\LIMITS
C:\PROGRAM FILES (X86)\MICROSOFT VISUAL STUDIO\2017\COMMUNITY\VC\TOOLS\MSVC\14.16.27023\INCLUDE\YMATH.H
C:\PROGRAM FILES (X86)\MICROSOFT VISUAL STUDIO\2017\COMMUNITY\VC\TOOLS\MSVC\14.16.27023\INCLUDE\CFLOAT
C:\PROGRAM FILES (X86)\WINDOWS KITS\10\INCLUDE\10.0.16299.0\UCRT\FLOAT.H
C:\PROGRAM FILES (X86)\MICROSOFT VISUAL STUDIO\2017\COMMUNITY\VC\TOOLS\MSVC\14.16.27023\INCLUDE\CWCHAR
C:\PROGRAM FILES (X86)\WINDOWS KITS\10\INCLUDE\10.0.16299.0\UCRT\WCHAR.H
C:\PROGRAM FILES (X86)\WINDOWS KITS\10\INCLUDE\10.0.16299.0\UCRT\CORECRT_WCONIO.H
C:\PROGRAM FILES (X86)\WINDOWS KITS\10\INCLUDE\10.0.16299.0\UCRT\CORECRT_WCTYPE.H
C:\PROGRAM FILES (X86)\WINDOWS KITS\10\INCLUDE\10.0.16299.0\UCRT\CORECRT_WDIRECT.H
C:\PROGRAM FILES (X86)\WINDOWS KITS\10\INCLUDE\10.0.16299.0\UCRT\CORECRT_WIO.H
C:\PROGRAM FILES (X86)\WINDOWS KITS\10\INCLUDE\10.0.16299.0\UCRT\CORECRT_SHARE.H
C:\PROGRAM FILES (X86)\WINDOWS KITS\10\INCLUDE\10.0.16299.0\UCRT\CORECRT_WPROCESS.H
C:\PROGRAM FILES (X86)\WINDOWS KITS\10\INCLUDE\10.0.16299.0\UCRT\CORECRT_WTIME.H
C:\PROGRAM FILES (X86)\WINDOWS KITS\10\INCLUDE\10.0.16299.0\UCRT\SYS\STAT.H
C:\PROGRAM FILES (X86)\WINDOWS KITS\10\INCLUDE\10.0.16299.0\UCRT\SYS\TYPES.H
C:\PROGRAM FILES (X86)\MICROSOFT VISUAL STUDIO\2017\COMMUNITY\VC\TOOLS\MSVC\14.16.27023\INCLUDE\NEW
C:\PROGRAM FILES (X86)\MICROSOFT VISUAL STUDIO\2017\COMMUNITY\VC\TOOLS\MSVC\14.16.27023\INCLUDE\XUTILITY
C:\PROGRAM FILES (X86)\MICROSOFT VISUAL STUDIO\2017\COMMUNITY\VC\TOOLS\MSVC\14.16.27023\INCLUDE\UTILITY
C:\PROGRAM FILES (X86)\MICROSOFT VISUAL STUDIO\2017\COMMUNITY\VC\TOOLS\MSVC\14.16.27023\INCLUDE\IOSFWD
C:\PROGRAM FILES (X86)\MICROSOFT VISUAL STUDIO\2017\COMMUNITY\VC\TOOLS\MSVC\14.16.27023\INCLUDE\XATOMIC0.H
C:\PROGRAM FILES (X86)\MICROSOFT VISUAL STUDIO\2017\COMMUNITY\VC\TOOLS\MSVC\14.16.27023\INCLUDE\INTRIN0.H
C:\PROGRAM FILES (X86)\MICROSOFT VISUAL STUDIO\2017\COMMUNITY\VC\TOOLS\MSVC\14.16.27023\INCLUDE\TYPEINFO
C:\PROGRAM FILES (X86)\MICROSOFT VISUAL STUDIO\2017\COMMUNITY\VC\TOOLS\MSVC\14.16.27023\INCLUDE\VCRUNTIME_TYPEINFO.H
C:\PROGRAM FILES (X86)\MICROSOFT VISUAL STUDIO\2017\COMMUNITY\VC\TOOLS\MSVC\14.16.27023\INCLUDE\XLOCINFO
C:\PROGRAM FILES (X86)\MICROSOFT VISUAL STUDIO\2017\COMMUNITY\VC\TOOLS\MSVC\14.16.27023\INCLUDE\XLOCINFO.H
C:\PROGRAM FILES (X86)\WINDOWS KITS\10\INCLUDE\10.0.16299.0\UCRT\CTYPE.H
C:\PROGRAM FILES (X86)\WINDOWS KITS\10\INCLUDE\10.0.16299.0\UCRT\LOCALE.H
C:\PROGRAM FILES (X86)\MICROSOFT VISUAL STUDIO\2017\COMMUNITY\VC\TOOLS\MSVC\14.16.27023\INCLUDE\MEMORY
C:\PROGRAM FILES (X86)\MICROSOFT VISUAL STUDIO\2017\COMMUNITY\VC\TOOLS\MSVC\14.16.27023\INCLUDE\XMEMORY
C:\PROGRAM FILES (X86)\MICROSOFT VISUAL STUDIO\2017\COMMUNITY\VC\TOOLS\MSVC\14.16.27023\INCLUDE\XFACET
C:\PROGRAM FILES (X86)\MICROSOFT VISUAL STUDIO\2017\COMMUNITY\VC\TOOLS\MSVC\14.16.27023\INCLUDE\SYSTEM_ERROR
C:\PROGRAM FILES (X86)\MICROSOFT VISUAL STUDIO\2017\COMMUNITY\VC\TOOLS\MSVC\14.16.27023\INCLUDE\CERRNO
C:\PROGRAM FILES (X86)\MICROSOFT VISUAL STUDIO\2017\COMMUNITY\VC\TOOLS\MSVC\14.16.27023\INCLUDE\XCALL_ONCE.H
C:\PROGRAM FILES (X86)\MICROSOFT VISUAL STUDIO\2017\COMMUNITY\VC\TOOLS\MSVC\14.16.27023\INCLUDE\XERRC.H
C:\PROGRAM FILES (X86)\WINDOWS KITS\10\INCLUDE\10.0.16299.0\UCRT\SHARE.H
D:\WORKSPACE\PROJECTS\PONG\PONG\LIB\SFML-2.5.1\INCLUDE\SFML\SYSTEM\FILEINPUTSTREAM.HPP
D:\WORKSPACE\PROJECTS\PONG\PONG\LIB\SFML-2.5.1\INCLUDE\SFML\SYSTEM\INPUTSTREAM.HPP
D:\WORKSPACE\PROJECTS\PONG\PONG\LIB\SFML-2.5.1\INCLUDE\SFML\SYSTEM\NONCOPYABLE.HPP
C:\PROGRAM FILES (X86)\MICROSOFT VISUAL STUDIO\2017\COMMUNITY\VC\TOOLS\MSVC\14.16.27023\INCLUDE\STRING
C:\PROGRAM FILES (X86)\MICROSOFT VISUAL STUDIO\2017\COMMUNITY\VC\TOOLS\MSVC\14.16.27023\INCLUDE\ISTREAM
C:\PROGRAM FILES (X86)\MICROSOFT VISUAL STUDIO\2017\COMMUNITY\VC\TOOLS\MSVC\14.16.27023\INCLUDE\XSTRING_INSERT.H
D:\WORKSPACE\PROJECTS\PONG\PONG\LIB\SFML-2.5.1\INCLUDE\SFML\SYSTEM\LOCK.HPP
D:\WORKSPACE\PROJECTS\PONG\PONG\LIB\SFML-2.5.1\INCLUDE\SFML\SYSTEM\MEMORYINPUTSTREAM.HPP
D:\WORKSPACE\PROJECTS\PONG\PONG\LIB\SFML-2.5.1\INCLUDE\SFML\SYSTEM\MUTEX.HPP
D:\WORKSPACE\PROJECTS\PONG\PONG\LIB\SFML-2.5.1\INCLUDE\SFML\SYSTEM\SLEEP.HPP
D:\WORKSPACE\PROJECTS\PONG\PONG\LIB\SFML-2.5.1\INCLUDE\SFML\SYSTEM\STRING.HPP
D:\WORKSPACE\PROJECTS\PONG\PONG\LIB\SFML-2.5.1\INCLUDE\SFML\SYSTEM\UTF.HPP
C:\PROGRAM FILES (X86)\MICROSOFT VISUAL STUDIO\2017\COMMUNITY\VC\TOOLS\MSVC\14.16.27023\INCLUDE\ALGORITHM
C:\PROGRAM FILES (X86)\MICROSOFT VISUAL STUDIO\2017\COMMUNITY\VC\TOOLS\MSVC\14.16.27023\INCLUDE\LOCALE
C:\PROGRAM FILES (X86)\MICROSOFT VISUAL STUDIO\2017\COMMUNITY\VC\TOOLS\MSVC\14.16.27023\INCLUDE\XLOCBUF
C:\PROGRAM FILES (X86)\MICROSOFT VISUAL STUDIO\2017\COMMUNITY\VC\TOOLS\MSVC\14.16.27023\INCLUDE\XLOCMES
C:\PROGRAM FILES (X86)\MICROSOFT VISUAL STUDIO\2017\COMMUNITY\VC\TOOLS\MSVC\14.16.27023\INCLUDE\XLOCMON
C:\PROGRAM FILES (X86)\MICROSOFT VISUAL STUDIO\2017\COMMUNITY\VC\TOOLS\MSVC\14.16.27023\INCLUDE\XLOCTIME
C:\PROGRAM FILES (X86)\MICROSOFT VISUAL STUDIO\2017\COMMUNITY\VC\TOOLS\MSVC\14.16.27023\INCLUDE\CTIME
C:\PROGRAM FILES (X86)\WINDOWS KITS\10\INCLUDE\10.0.16299.0\UCRT\TIME.H
D:\WORKSPACE\PROJECTS\PONG\PONG\LIB\SFML-2.5.1\INCLUDE\SFML\SYSTEM\UTF.INL
C:\PROGRAM FILES (X86)\MICROSOFT VISUAL STUDIO\2017\COMMUNITY\VC\TOOLS\MSVC\14.16.27023\INCLUDE\ITERATOR
D:\WORKSPACE\PROJECTS\PONG\PONG\LIB\SFML-2.5.1\INCLUDE\SFML\SYSTEM\STRING.INL
D:\WORKSPACE\PROJECTS\PONG\PONG\LIB\SFML-2.5.1\INCLUDE\SFML\SYSTEM\THREAD.HPP
D:\WORKSPACE\PROJECTS\PONG\PONG\LIB\SFML-2.5.1\INCLUDE\SFML\SYSTEM\THREAD.INL
D:\WORKSPACE\PROJECTS\PONG\PONG\LIB\SFML-2.5.1\INCLUDE\SFML\SYSTEM\THREADLOCAL.HPP
D:\WORKSPACE\PROJECTS\PONG\PONG\LIB\SFML-2.5.1\INCLUDE\SFML\SYSTEM\THREADLOCALPTR.HPP
D:\WORKSPACE\PROJECTS\PONG\PONG\LIB\SFML-2.5.1\INCLUDE\SFML\SYSTEM\THREADLOCALPTR.INL
D:\WORKSPACE\PROJECTS\PONG\PONG\LIB\SFML-2.5.1\INCLUDE\SFML\SYSTEM\VECTOR2.HPP
D:\WORKSPACE\PROJECTS\PONG\PONG\LIB\SFML-2.5.1\INCLUDE\SFML\SYSTEM\VECTOR2.INL
D:\WORKSPACE\PROJECTS\PONG\PONG\LIB\SFML-2.5.1\INCLUDE\SFML\SYSTEM\VECTOR3.HPP
D:\WORKSPACE\PROJECTS\PONG\PONG\LIB\SFML-2.5.1\INCLUDE\SFML\SYSTEM\VECTOR3.INL
D:\WORKSPACE\PROJECTS\PONG\PONG\LIB\SFML-2.5.1\INCLUDE\SFML\WINDOW\CLIPBOARD.HPP
D:\WORKSPACE\PROJECTS\PONG\PONG\LIB\SFML-2.5.1\INCLUDE\SFML\WINDOW\EXPORT.HPP
D:\WORKSPACE\PROJECTS\PONG\PONG\LIB\SFML-2.5.1\INCLUDE\SFML\WINDOW\CONTEXT.HPP
D:\WORKSPACE\PROJECTS\PONG\PONG\LIB\SFML-2.5.1\INCLUDE\SFML\WINDOW\GLRESOURCE.HPP
D:\WORKSPACE\PROJECTS\PONG\PONG\LIB\SFML-2.5.1\INCLUDE\SFML\WINDOW\CONTEXTSETTINGS.HPP
D:\WORKSPACE\PROJECTS\PONG\PONG\LIB\SFML-2.5.1\INCLUDE\SFML\WINDOW\CURSOR.HPP
D:\WORKSPACE\PROJECTS\PONG\PONG\LIB\SFML-2.5.1\INCLUDE\SFML\WINDOW\EVENT.HPP
D:\WORKSPACE\PROJECTS\PONG\PONG\LIB\SFML-2.5.1\INCLUDE\SFML\WINDOW\JOYSTICK.HPP
D:\WORKSPACE\PROJECTS\PONG\PONG\LIB\SFML-2.5.1\INCLUDE\SFML\WINDOW\KEYBOARD.HPP
D:\WORKSPACE\PROJECTS\PONG\PONG\LIB\SFML-2.5.1\INCLUDE\SFML\WINDOW\MOUSE.HPP
D:\WORKSPACE\PROJECTS\PONG\PONG\LIB\SFML-2.5.1\INCLUDE\SFML\WINDOW\SENSOR.HPP
D:\WORKSPACE\PROJECTS\PONG\PONG\LIB\SFML-2.5.1\INCLUDE\SFML\WINDOW\TOUCH.HPP
D:\WORKSPACE\PROJECTS\PONG\PONG\LIB\SFML-2.5.1\INCLUDE\SFML\WINDOW\VIDEOMODE.HPP
C:\PROGRAM FILES (X86)\MICROSOFT VISUAL STUDIO\2017\COMMUNITY\VC\TOOLS\MSVC\14.16.27023\INCLUDE\VECTOR
D:\WORKSPACE\PROJECTS\PONG\PONG\LIB\SFML-2.5.1\INCLUDE\SFML\WINDOW\WINDOW.HPP
D:\WORKSPACE\PROJECTS\PONG\PONG\LIB\SFML-2.5.1\INCLUDE\SFML\WINDOW\WINDOWHANDLE.HPP
D:\WORKSPACE\PROJECTS\PONG\PONG\LIB\SFML-2.5.1\INCLUDE\SFML\WINDOW\WINDOWSTYLE.HPP
D:\WORKSPACE\PROJECTS\PONG\PONG\LIB\SFML-2.5.1\INCLUDE\SFML\GRAPHICS\BLENDMODE.HPP
D:\WORKSPACE\PROJECTS\PONG\PONG\LIB\SFML-2.5.1\INCLUDE\SFML\GRAPHICS\EXPORT.HPP
D:\WORKSPACE\PROJECTS\PONG\PONG\LIB\SFML-2.5.1\INCLUDE\SFML\GRAPHICS\CIRCLESHAPE.HPP
D:\WORKSPACE\PROJECTS\PONG\PONG\LIB\SFML-2.5.1\INCLUDE\SFML\GRAPHICS\SHAPE.HPP
D:\WORKSPACE\PROJECTS\PONG\PONG\LIB\SFML-2.5.1\INCLUDE\SFML\GRAPHICS\DRAWABLE.HPP
D:\WORKSPACE\PROJECTS\PONG\PONG\LIB\SFML-2.5.1\INCLUDE\SFML\GRAPHICS\RENDERSTATES.HPP
D:\WORKSPACE\PROJECTS\PONG\PONG\LIB\SFML-2.5.1\INCLUDE\SFML\GRAPHICS\TRANSFORM.HPP
D:\WORKSPACE\PROJECTS\PONG\PONG\LIB\SFML-2.5.1\INCLUDE\SFML\GRAPHICS\RECT.HPP
D:\WORKSPACE\PROJECTS\PONG\PONG\LIB\SFML-2.5.1\INCLUDE\SFML\GRAPHICS\RECT.INL
D:\WORKSPACE\PROJECTS\PONG\PONG\LIB\SFML-2.5.1\INCLUDE\SFML\GRAPHICS\TRANSFORMABLE.HPP
D:\WORKSPACE\PROJECTS\PONG\PONG\LIB\SFML-2.5.1\INCLUDE\SFML\GRAPHICS\VERTEXARRAY.HPP
D:\WORKSPACE\PROJECTS\PONG\PONG\LIB\SFML-2.5.1\INCLUDE\SFML\GRAPHICS\VERTEX.HPP
D:\WORKSPACE\PROJECTS\PONG\PONG\LIB\SFML-2.5.1\INCLUDE\SFML\GRAPHICS\COLOR.HPP
D:\WORKSPACE\PROJECTS\PONG\PONG\LIB\SFML-2.5.1\INCLUDE\SFML\GRAPHICS\PRIMITIVETYPE.HPP
D:\WORKSPACE\PROJECTS\PONG\PONG\LIB\SFML-2.5.1\INCLUDE\SFML\GRAPHICS\CONVEXSHAPE.HPP
D:\WORKSPACE\PROJECTS\PONG\PONG\LIB\SFML-2.5.1\INCLUDE\SFML\GRAPHICS\FONT.HPP
D:\WORKSPACE\PROJECTS\PONG\PONG\LIB\SFML-2.5.1\INCLUDE\SFML\GRAPHICS\GLYPH.HPP
D:\WORKSPACE\PROJECTS\PONG\PONG\LIB\SFML-2.5.1\INCLUDE\SFML\GRAPHICS\TEXTURE.HPP
D:\WORKSPACE\PROJECTS\PONG\PONG\LIB\SFML-2.5.1\INCLUDE\SFML\GRAPHICS\IMAGE.HPP
C:\PROGRAM FILES (X86)\MICROSOFT VISUAL STUDIO\2017\COMMUNITY\VC\TOOLS\MSVC\14.16.27023\INCLUDE\MAP
C:\PROGRAM FILES (X86)\MICROSOFT VISUAL STUDIO\2017\COMMUNITY\VC\TOOLS\MSVC\14.16.27023\INCLUDE\TUPLE
C:\PROGRAM FILES (X86)\MICROSOFT VISUAL STUDIO\2017\COMMUNITY\VC\TOOLS\MSVC\14.16.27023\INCLUDE\XTREE
D:\WORKSPACE\PROJECTS\PONG\PONG\LIB\SFML-2.5.1\INCLUDE\SFML\GRAPHICS\RECTANGLESHAPE.HPP
D:\WORKSPACE\PROJECTS\PONG\PONG\LIB\SFML-2.5.1\INCLUDE\SFML\GRAPHICS\RENDERTARGET.HPP
D:\WORKSPACE\PROJECTS\PONG\PONG\LIB\SFML-2.5.1\INCLUDE\SFML\GRAPHICS\VIEW.HPP
D:\WORKSPACE\PROJECTS\PONG\PONG\LIB\SFML-2.5.1\INCLUDE\SFML\GRAPHICS\RENDERTEXTURE.HPP
D:\WORKSPACE\PROJECTS\PONG\PONG\LIB\SFML-2.5.1\INCLUDE\SFML\GRAPHICS\RENDERWINDOW.HPP
D:\WORKSPACE\PROJECTS\PONG\PONG\LIB\SFML-2.5.1\INCLUDE\SFML\GRAPHICS\SHADER.HPP
D:\WORKSPACE\PROJECTS\PONG\PONG\LIB\SFML-2.5.1\INCLUDE\SFML\GRAPHICS\GLSL.HPP
D:\WORKSPACE\PROJECTS\PONG\PONG\LIB\SFML-2.5.1\INCLUDE\SFML\GRAPHICS\GLSL.INL
D:\WORKSPACE\PROJECTS\PONG\PONG\LIB\SFML-2.5.1\INCLUDE\SFML\GRAPHICS\SPRITE.HPP
D:\WORKSPACE\PROJECTS\PONG\PONG\LIB\SFML-2.5.1\INCLUDE\SFML\GRAPHICS\TEXT.HPP
D:\WORKSPACE\PROJECTS\PONG\PONG\LIB\SFML-2.5.1\INCLUDE\SFML\GRAPHICS\VERTEXBUFFER.HPP
^D:\WORKSPACE\PROJECTS\PONG\PONG\UTIL.CPP
C:\PROGRAM FILES (X86)\MICROSOFT VISUAL STUDIO\2017\COMMUNITY\VC\TOOLS\MSVC\14.16.27023\INCLUDE\IOSTREAM
C:\PROGRAM FILES (X86)\MICROSOFT VISUAL STUDIO\2017\COMMUNITY\VC\TOOLS\MSVC\14.16.27023\INCLUDE\ISTREAM
C:\PROGRAM FILES (X86)\MICROSOFT VISUAL STUDIO\2017\COMMUNITY\VC\TOOLS\MSVC\14.16.27023\INCLUDE\OSTREAM
C:\PROGRAM FILES (X86)\MICROSOFT VISUAL STUDIO\2017\COMMUNITY\VC\TOOLS\MSVC\14.16.27023\INCLUDE\IOS
C:\PROGRAM FILES (X86)\MICROSOFT VISUAL STUDIO\2017\COMMUNITY\VC\TOOLS\MSVC\14.16.27023\INCLUDE\XLOCNUM
C:\PROGRAM FILES (X86)\MICROSOFT VISUAL STUDIO\2017\COMMUNITY\VC\TOOLS\MSVC\14.16.27023\INCLUDE\CLIMITS
C:\PROGRAM FILES (X86)\MICROSOFT VISUAL STUDIO\2017\COMMUNITY\VC\TOOLS\MSVC\14.16.27023\INCLUDE\YVALS.H
C:\PROGRAM FILES (X86)\MICROSOFT VISUAL STUDIO\2017\COMMUNITY\VC\TOOLS\MSVC\14.16.27023\INCLUDE\YVALS_CORE.H
C:\PROGRAM FILES (X86)\MICROSOFT VISUAL STUDIO\2017\COMMUNITY\VC\TOOLS\MSVC\14.16.27023\INCLUDE\XKEYCHECK.H
C:\PROGRAM FILES (X86)\MICROSOFT VISUAL STUDIO\2017\COMMUNITY\VC\TOOLS\MSVC\14.16.27023\INCLUDE\CRTDEFS.H
C:\PROGRAM FILES (X86)\MICROSOFT VISUAL STUDIO\2017\COMMUNITY\VC\TOOLS\MSVC\14.16.27023\INCLUDE\VCRUNTIME.H
C:\PROGRAM FILES (X86)\MICROSOFT VISUAL STUDIO\2017\COMMUNITY\VC\TOOLS\MSVC\14.16.27023\INCLUDE\SAL.H
C:\PROGRAM FILES (X86)\MICROSOFT VISUAL STUDIO\2017\COMMUNITY\VC\TOOLS\MSVC\14.16.27023\INCLUDE\CONCURRENCYSAL.H
C:\PROGRAM FILES (X86)\MICROSOFT VISUAL STUDIO\2017\COMMUNITY\VC\TOOLS\MSVC\14.16.27023\INCLUDE\VADEFS.H
C:\PROGRAM FILES (X86)\WINDOWS KITS\10\INCLUDE\10.0.16299.0\UCRT\CORECRT.H
C:\PROGRAM FILES (X86)\WINDOWS KITS\10\INCLUDE\10.0.16299.0\UCRT\CRTDBG.H
C:\PROGRAM FILES (X86)\MICROSOFT VISUAL STUDIO\2017\COMMUNITY\VC\TOOLS\MSVC\14.16.27023\INCLUDE\VCRUNTIME_NEW_DEBUG.H
C:\PROGRAM FILES (X86)\MICROSOFT VISUAL STUDIO\2017\COMMUNITY\VC\TOOLS\MSVC\14.16.27023\INCLUDE\VCRUNTIME_NEW.H
C:\PROGRAM FILES (X86)\MICROSOFT VISUAL STUDIO\2017\COMMUNITY\VC\TOOLS\MSVC\14.16.27023\INCLUDE\USE_ANSI.H
C:\PROGRAM FILES (X86)\MICROSOFT VISUAL STUDIO\2017\COMMUNITY\VC\TOOLS\MSVC\14.16.27023\INCLUDE\LIMITS.H
C:\PROGRAM FILES (X86)\MICROSOFT VISUAL STUDIO\2017\COMMUNITY\VC\TOOLS\MSVC\14.16.27023\INCLUDE\CMATH
C:\PROGRAM FILES (X86)\MICROSOFT VISUAL STUDIO\2017\COMMUNITY\VC\TOOLS\MSVC\14.16.27023\INCLUDE\CSTDLIB
C:\PROGRAM FILES (X86)\WINDOWS KITS\10\INCLUDE\10.0.16299.0\UCRT\STDLIB.H
C:\PROGRAM FILES (X86)\WINDOWS KITS\10\INCLUDE\10.0.16299.0\UCRT\CORECRT_MALLOC.H
C:\PROGRAM FILES (X86)\WINDOWS KITS\10\INCLUDE\10.0.16299.0\UCRT\CORECRT_SEARCH.H
C:\PROGRAM FILES (X86)\WINDOWS KITS\10\INCLUDE\10.0.16299.0\UCRT\STDDEF.H
C:\PROGRAM FILES (X86)\WINDOWS KITS\10\INCLUDE\10.0.16299.0\UCRT\CORECRT_WSTDLIB.H
C:\PROGRAM FILES (X86)\WINDOWS KITS\10\INCLUDE\10.0.16299.0\UCRT\MATH.H
C:\PROGRAM FILES (X86)\WINDOWS KITS\10\INCLUDE\10.0.16299.0\UCRT\CORECRT_MATH.H
C:\PROGRAM FILES (X86)\MICROSOFT VISUAL STUDIO\2017\COMMUNITY\VC\TOOLS\MSVC\14.16.27023\INCLUDE\XTGMATH.H
C:\PROGRAM FILES (X86)\MICROSOFT VISUAL STUDIO\2017\COMMUNITY\VC\TOOLS\MSVC\14.16.27023\INCLUDE\XTR1COMMON
C:\PROGRAM FILES (X86)\MICROSOFT VISUAL STUDIO\2017\COMMUNITY\VC\TOOLS\MSVC\14.16.27023\INCLUDE\CSTDIO
C:\PROGRAM FILES (X86)\WINDOWS KITS\10\INCLUDE\10.0.16299.0\UCRT\STDIO.H
C:\PROGRAM FILES (X86)\WINDOWS KITS\10\INCLUDE\10.0.16299.0\UCRT\CORECRT_WSTDIO.H
C:\PROGRAM FILES (X86)\WINDOWS KITS\10\INCLUDE\10.0.16299.0\UCRT\CORECRT_STDIO_CONFIG.H
C:\PROGRAM FILES (X86)\MICROSOFT VISUAL STUDIO\2017\COMMUNITY\VC\TOOLS\MSVC\14.16.27023\INCLUDE\STREAMBUF
C:\PROGRAM FILES (X86)\MICROSOFT VISUAL STUDIO\2017\COMMUNITY\VC\TOOLS\MSVC\14.16.27023\INCLUDE\XIOSBASE
C:\PROGRAM FILES (X86)\MICROSOFT VISUAL STUDIO\2017\COMMUNITY\VC\TOOLS\MSVC\14.16.27023\INCLUDE\XLOCALE
C:\PROGRAM FILES (X86)\MICROSOFT VISUAL STUDIO\2017\COMMUNITY\VC\TOOLS\MSVC\14.16.27023\INCLUDE\CSTRING
C:\PROGRAM FILES (X86)\WINDOWS KITS\10\INCLUDE\10.0.16299.0\UCRT\STRING.H
C:\PROGRAM FILES (X86)\WINDOWS KITS\10\INCLUDE\10.0.16299.0\UCRT\CORECRT_MEMORY.H
C:\PROGRAM FILES (X86)\WINDOWS KITS\10\INCLUDE\10.0.16299.0\UCRT\CORECRT_MEMCPY_S.H
C:\PROGRAM FILES (X86)\WINDOWS KITS\10\INCLUDE\10.0.16299.0\UCRT\ERRNO.H
C:\PROGRAM FILES (X86)\MICROSOFT VISUAL STUDIO\2017\COMMUNITY\VC\TOOLS\MSVC\14.16.27023\INCLUDE\VCRUNTIME_STRING.H
C:\PROGRAM FILES (X86)\WINDOWS KITS\10\INCLUDE\10.0.16299.0\UCRT\CORECRT_WSTRING.H
C:\PROGRAM FILES (X86)\MICROSOFT VISUAL STUDIO\2017\COMMUNITY\VC\TOOLS\MSVC\14.16.27023\INCLUDE\STDEXCEPT
C:\PROGRAM FILES (X86)\MICROSOFT VISUAL STUDIO\2017\COMMUNITY\VC\TOOLS\MSVC\14.16.27023\INCLUDE\EXCEPTION
C:\PROGRAM FILES (X86)\MICROSOFT VISUAL STUDIO\2017\COMMUNITY\VC\TOOLS\MSVC\14.16.27023\INCLUDE\TYPE_TRAITS
C:\PROGRAM FILES (X86)\MICROSOFT VISUAL STUDIO\2017\COMMUNITY\VC\TOOLS\MSVC\14.16.27023\INCLUDE\XSTDDEF
C:\PROGRAM FILES (X86)\MICROSOFT VISUAL STUDIO\2017\COMMUNITY\VC\TOOLS\MSVC\14.16.27023\INCLUDE\CSTDDEF
C:\PROGRAM FILES (X86)\MICROSOFT VISUAL STUDIO\2017\COMMUNITY\VC\TOOLS\MSVC\14.16.27023\INCLUDE\INITIALIZER_LIST
C:\PROGRAM FILES (X86)\WINDOWS KITS\10\INCLUDE\10.0.16299.0\UCRT\MALLOC.H
C:\PROGRAM FILES (X86)\MICROSOFT VISUAL STUDIO\2017\COMMUNITY\VC\TOOLS\MSVC\14.16.27023\INCLUDE\VCRUNTIME_EXCEPTION.H
C:\PROGRAM FILES (X86)\MICROSOFT VISUAL STUDIO\2017\COMMUNITY\VC\TOOLS\MSVC\14.16.27023\INCLUDE\EH.H
C:\PROGRAM FILES (X86)\WINDOWS KITS\10\INCLUDE\10.0.16299.0\UCRT\CORECRT_TERMINATE.H
C:\PROGRAM FILES (X86)\MICROSOFT VISUAL STUDIO\2017\COMMUNITY\VC\TOOLS\MSVC\14.16.27023\INCLUDE\XSTRING
C:\PROGRAM FILES (X86)\MICROSOFT VISUAL STUDIO\2017\COMMUNITY\VC\TOOLS\MSVC\14.16.27023\INCLUDE\XMEMORY0
C:\PROGRAM FILES (X86)\MICROSOFT VISUAL STUDIO\2017\COMMUNITY\VC\TOOLS\MSVC\14.16.27023\INCLUDE\CSTDINT
C:\PROGRAM FILES (X86)\MICROSOFT VISUAL STUDIO\2017\COMMUNITY\VC\TOOLS\MSVC\14.16.27023\INCLUDE\STDINT.H
C:\PROGRAM FILES (X86)\MICROSOFT VISUAL STUDIO\2017\COMMUNITY\VC\TOOLS\MSVC\14.16.27023\INCLUDE\LIMITS
C:\PROGRAM FILES (X86)\MICROSOFT VISUAL STUDIO\2017\COMMUNITY\VC\TOOLS\MSVC\14.16.27023\INCLUDE\YMATH.H
C:\PROGRAM FILES (X86)\MICROSOFT VISUAL STUDIO\2017\COMMUNITY\VC\TOOLS\MSVC\14.16.27023\INCLUDE\CFLOAT
C:\PROGRAM FILES (X86)\WINDOWS KITS\10\INCLUDE\10.0.16299.0\UCRT\FLOAT.H
C:\PROGRAM FILES (X86)\MICROSOFT VISUAL STUDIO\2017\COMMUNITY\VC\TOOLS\MSVC\14.16.27023\INCLUDE\CWCHAR
C:\PROGRAM FILES (X86)\WINDOWS KITS\10\INCLUDE\10.0.16299.0\UCRT\WCHAR.H
C:\PROGRAM FILES (X86)\WINDOWS KITS\10\INCLUDE\10.0.16299.0\UCRT\CORECRT_WCONIO.H
C:\PROGRAM FILES (X86)\WINDOWS KITS\10\INCLUDE\10.0.16299.0\UCRT\CORECRT_WCTYPE.H
C:\PROGRAM FILES (X86)\WINDOWS KITS\10\INCLUDE\10.0.16299.0\UCRT\CORECRT_WDIRECT.H
C:\PROGRAM FILES (X86)\WINDOWS KITS\10\INCLUDE\10.0.16299.0\UCRT\CORECRT_WIO.H
C:\PROGRAM FILES (X86)\WINDOWS KITS\10\INCLUDE\10.0.16299.0\UCRT\CORECRT_SHARE.H
C:\PROGRAM FILES (X86)\WINDOWS KITS\10\INCLUDE\10.0.16299.0\UCRT\CORECRT_WPROCESS.H
C:\PROGRAM FILES (X86)\WINDOWS KITS\10\INCLUDE\10.0.16299.0\UCRT\CORECRT_WTIME.H
C:\PROGRAM FILES (X86)\WINDOWS KITS\10\INCLUDE\10.0.16299.0\UCRT\SYS\STAT.H
C:\PROGRAM FILES (X86)\WINDOWS KITS\10\INCLUDE\10.0.16299.0\UCRT\SYS\TYPES.H
C:\PROGRAM FILES (X86)\MICROSOFT VISUAL STUDIO\2017\COMMUNITY\VC\TOOLS\MSVC\14.16.27023\INCLUDE\NEW
C:\PROGRAM FILES (X86)\MICROSOFT VISUAL STUDIO\2017\COMMUNITY\VC\TOOLS\MSVC\14.16.27023\INCLUDE\XUTILITY
C:\PROGRAM FILES (X86)\MICROSOFT VISUAL STUDIO\2017\COMMUNITY\VC\TOOLS\MSVC\14.16.27023\INCLUDE\UTILITY
C:\PROGRAM FILES (X86)\MICROSOFT VISUAL STUDIO\2017\COMMUNITY\VC\TOOLS\MSVC\14.16.27023\INCLUDE\IOSFWD
C:\PROGRAM FILES (X86)\MICROSOFT VISUAL STUDIO\2017\COMMUNITY\VC\TOOLS\MSVC\14.16.27023\INCLUDE\XATOMIC0.H
C:\PROGRAM FILES (X86)\MICROSOFT VISUAL STUDIO\2017\COMMUNITY\VC\TOOLS\MSVC\14.16.27023\INCLUDE\INTRIN0.H
C:\PROGRAM FILES (X86)\MICROSOFT VISUAL STUDIO\2017\COMMUNITY\VC\TOOLS\MSVC\14.16.27023\INCLUDE\TYPEINFO
C:\PROGRAM FILES (X86)\MICROSOFT VISUAL STUDIO\2017\COMMUNITY\VC\TOOLS\MSVC\14.16.27023\INCLUDE\VCRUNTIME_TYPEINFO.H
C:\PROGRAM FILES (X86)\MICROSOFT VISUAL STUDIO\2017\COMMUNITY\VC\TOOLS\MSVC\14.16.27023\INCLUDE\XLOCINFO
C:\PROGRAM FILES (X86)\MICROSOFT VISUAL STUDIO\2017\COMMUNITY\VC\TOOLS\MSVC\14.16.27023\INCLUDE\XLOCINFO.H
C:\PROGRAM FILES (X86)\WINDOWS KITS\10\INCLUDE\10.0.16299.0\UCRT\CTYPE.H
C:\PROGRAM FILES (X86)\WINDOWS KITS\10\INCLUDE\10.0.16299.0\UCRT\LOCALE.H
C:\PROGRAM FILES (X86)\MICROSOFT VISUAL STUDIO\2017\COMMUNITY\VC\TOOLS\MSVC\14.16.27023\INCLUDE\MEMORY
C:\PROGRAM FILES (X86)\MICROSOFT VISUAL STUDIO\2017\COMMUNITY\VC\TOOLS\MSVC\14.16.27023\INCLUDE\XMEMORY
C:\PROGRAM FILES (X86)\MICROSOFT VISUAL STUDIO\2017\COMMUNITY\VC\TOOLS\MSVC\14.16.27023\INCLUDE\XFACET
C:\PROGRAM FILES (X86)\MICROSOFT VISUAL STUDIO\2017\COMMUNITY\VC\TOOLS\MSVC\14.16.27023\INCLUDE\SYSTEM_ERROR
C:\PROGRAM FILES (X86)\MICROSOFT VISUAL STUDIO\2017\COMMUNITY\VC\TOOLS\MSVC\14.16.27023\INCLUDE\CERRNO
C:\PROGRAM FILES (X86)\MICROSOFT VISUAL STUDIO\2017\COMMUNITY\VC\TOOLS\MSVC\14.16.27023\INCLUDE\XCALL_ONCE.H
C:\PROGRAM FILES (X86)\MICROSOFT VISUAL STUDIO\2017\COMMUNITY\VC\TOOLS\MSVC\14.16.27023\INCLUDE\XERRC.H
C:\PROGRAM FILES (X86)\WINDOWS KITS\10\INCLUDE\10.0.16299.0\UCRT\SHARE.H
D:\WORKSPACE\PROJECTS\PONG\PONG\UTIL.H
^D:\WORKSPACE\PROJECTS\PONG\PONG\MAIN.CPP
C:\PROGRAM FILES (X86)\MICROSOFT VISUAL STUDIO\2017\COMMUNITY\VC\TOOLS\MSVC\14.16.27023\BIN\HOSTX86\X64\1031\CLUI.DLL
C:\WINDOWS\GLOBALIZATION\SORTING\SORTDEFAULT.NLS
C:\WINDOWS\SYSTEM32\TZRES.DLL
C:\PROGRAM FILES (X86)\MICROSOFT VISUAL STUDIO\2017\COMMUNITY\VC\TOOLS\MSVC\14.16.27023\INCLUDE\IOSTREAM
C:\PROGRAM FILES (X86)\MICROSOFT VISUAL STUDIO\2017\COMMUNITY\VC\TOOLS\MSVC\14.16.27023\INCLUDE\ISTREAM
C:\PROGRAM FILES (X86)\MICROSOFT VISUAL STUDIO\2017\COMMUNITY\VC\TOOLS\MSVC\14.16.27023\INCLUDE\OSTREAM
C:\PROGRAM FILES (X86)\MICROSOFT VISUAL STUDIO\2017\COMMUNITY\VC\TOOLS\MSVC\14.16.27023\INCLUDE\IOS
C:\PROGRAM FILES (X86)\MICROSOFT VISUAL STUDIO\2017\COMMUNITY\VC\TOOLS\MSVC\14.16.27023\INCLUDE\XLOCNUM
C:\PROGRAM FILES (X86)\MICROSOFT VISUAL STUDIO\2017\COMMUNITY\VC\TOOLS\MSVC\14.16.27023\INCLUDE\CLIMITS
C:\PROGRAM FILES (X86)\MICROSOFT VISUAL STUDIO\2017\COMMUNITY\VC\TOOLS\MSVC\14.16.27023\INCLUDE\YVALS.H
C:\PROGRAM FILES (X86)\MICROSOFT VISUAL STUDIO\2017\COMMUNITY\VC\TOOLS\MSVC\14.16.27023\INCLUDE\YVALS_CORE.H
C:\PROGRAM FILES (X86)\MICROSOFT VISUAL STUDIO\2017\COMMUNITY\VC\TOOLS\MSVC\14.16.27023\INCLUDE\XKEYCHECK.H
C:\PROGRAM FILES (X86)\MICROSOFT VISUAL STUDIO\2017\COMMUNITY\VC\TOOLS\MSVC\14.16.27023\INCLUDE\CRTDEFS.H
C:\PROGRAM FILES (X86)\MICROSOFT VISUAL STUDIO\2017\COMMUNITY\VC\TOOLS\MSVC\14.16.27023\INCLUDE\VCRUNTIME.H
C:\PROGRAM FILES (X86)\MICROSOFT VISUAL STUDIO\2017\COMMUNITY\VC\TOOLS\MSVC\14.16.27023\INCLUDE\SAL.H
C:\PROGRAM FILES (X86)\MICROSOFT VISUAL STUDIO\2017\COMMUNITY\VC\TOOLS\MSVC\14.16.27023\INCLUDE\CONCURRENCYSAL.H
C:\PROGRAM FILES (X86)\MICROSOFT VISUAL STUDIO\2017\COMMUNITY\VC\TOOLS\MSVC\14.16.27023\INCLUDE\VADEFS.H
C:\PROGRAM FILES (X86)\WINDOWS KITS\10\INCLUDE\10.0.16299.0\UCRT\CORECRT.H
C:\PROGRAM FILES (X86)\WINDOWS KITS\10\INCLUDE\10.0.16299.0\UCRT\CRTDBG.H
C:\PROGRAM FILES (X86)\MICROSOFT VISUAL STUDIO\2017\COMMUNITY\VC\TOOLS\MSVC\14.16.27023\INCLUDE\VCRUNTIME_NEW_DEBUG.H
C:\PROGRAM FILES (X86)\MICROSOFT VISUAL STUDIO\2017\COMMUNITY\VC\TOOLS\MSVC\14.16.27023\INCLUDE\VCRUNTIME_NEW.H
C:\PROGRAM FILES (X86)\MICROSOFT VISUAL STUDIO\2017\COMMUNITY\VC\TOOLS\MSVC\14.16.27023\INCLUDE\USE_ANSI.H
C:\PROGRAM FILES (X86)\MICROSOFT VISUAL STUDIO\2017\COMMUNITY\VC\TOOLS\MSVC\14.16.27023\INCLUDE\LIMITS.H
C:\PROGRAM FILES (X86)\MICROSOFT VISUAL STUDIO\2017\COMMUNITY\VC\TOOLS\MSVC\14.16.27023\INCLUDE\CMATH
C:\PROGRAM FILES (X86)\MICROSOFT VISUAL STUDIO\2017\COMMUNITY\VC\TOOLS\MSVC\14.16.27023\INCLUDE\CSTDLIB
C:\PROGRAM FILES (X86)\WINDOWS KITS\10\INCLUDE\10.0.16299.0\UCRT\STDLIB.H
C:\PROGRAM FILES (X86)\WINDOWS KITS\10\INCLUDE\10.0.16299.0\UCRT\CORECRT_MALLOC.H
C:\PROGRAM FILES (X86)\WINDOWS KITS\10\INCLUDE\10.0.16299.0\UCRT\CORECRT_SEARCH.H
C:\PROGRAM FILES (X86)\WINDOWS KITS\10\INCLUDE\10.0.16299.0\UCRT\STDDEF.H
C:\PROGRAM FILES (X86)\WINDOWS KITS\10\INCLUDE\10.0.16299.0\UCRT\CORECRT_WSTDLIB.H
C:\PROGRAM FILES (X86)\WINDOWS KITS\10\INCLUDE\10.0.16299.0\UCRT\MATH.H
C:\PROGRAM FILES (X86)\WINDOWS KITS\10\INCLUDE\10.0.16299.0\UCRT\CORECRT_MATH.H
C:\PROGRAM FILES (X86)\MICROSOFT VISUAL STUDIO\2017\COMMUNITY\VC\TOOLS\MSVC\14.16.27023\INCLUDE\XTGMATH.H
C:\PROGRAM FILES (X86)\MICROSOFT VISUAL STUDIO\2017\COMMUNITY\VC\TOOLS\MSVC\14.16.27023\INCLUDE\XTR1COMMON
C:\PROGRAM FILES (X86)\MICROSOFT VISUAL STUDIO\2017\COMMUNITY\VC\TOOLS\MSVC\14.16.27023\INCLUDE\CSTDIO
C:\PROGRAM FILES (X86)\WINDOWS KITS\10\INCLUDE\10.0.16299.0\UCRT\STDIO.H
C:\PROGRAM FILES (X86)\WINDOWS KITS\10\INCLUDE\10.0.16299.0\UCRT\CORECRT_WSTDIO.H
C:\PROGRAM FILES (X86)\WINDOWS KITS\10\INCLUDE\10.0.16299.0\UCRT\CORECRT_STDIO_CONFIG.H
C:\PROGRAM FILES (X86)\MICROSOFT VISUAL STUDIO\2017\COMMUNITY\VC\TOOLS\MSVC\14.16.27023\INCLUDE\STREAMBUF
C:\PROGRAM FILES (X86)\MICROSOFT VISUAL STUDIO\2017\COMMUNITY\VC\TOOLS\MSVC\14.16.27023\INCLUDE\XIOSBASE
C:\PROGRAM FILES (X86)\MICROSOFT VISUAL STUDIO\2017\COMMUNITY\VC\TOOLS\MSVC\14.16.27023\INCLUDE\XLOCALE
C:\PROGRAM FILES (X86)\MICROSOFT VISUAL STUDIO\2017\COMMUNITY\VC\TOOLS\MSVC\14.16.27023\INCLUDE\CSTRING
C:\PROGRAM FILES (X86)\WINDOWS KITS\10\INCLUDE\10.0.16299.0\UCRT\STRING.H
C:\PROGRAM FILES (X86)\WINDOWS KITS\10\INCLUDE\10.0.16299.0\UCRT\CORECRT_MEMORY.H
C:\PROGRAM FILES (X86)\WINDOWS KITS\10\INCLUDE\10.0.16299.0\UCRT\CORECRT_MEMCPY_S.H
C:\PROGRAM FILES (X86)\WINDOWS KITS\10\INCLUDE\10.0.16299.0\UCRT\ERRNO.H
C:\PROGRAM FILES (X86)\MICROSOFT VISUAL STUDIO\2017\COMMUNITY\VC\TOOLS\MSVC\14.16.27023\INCLUDE\VCRUNTIME_STRING.H
C:\PROGRAM FILES (X86)\WINDOWS KITS\10\INCLUDE\10.0.16299.0\UCRT\CORECRT_WSTRING.H
C:\PROGRAM FILES (X86)\MICROSOFT VISUAL STUDIO\2017\COMMUNITY\VC\TOOLS\MSVC\14.16.27023\INCLUDE\STDEXCEPT
C:\PROGRAM FILES (X86)\MICROSOFT VISUAL STUDIO\2017\COMMUNITY\VC\TOOLS\MSVC\14.16.27023\INCLUDE\EXCEPTION
C:\PROGRAM FILES (X86)\MICROSOFT VISUAL STUDIO\2017\COMMUNITY\VC\TOOLS\MSVC\14.16.27023\INCLUDE\TYPE_TRAITS
C:\PROGRAM FILES (X86)\MICROSOFT VISUAL STUDIO\2017\COMMUNITY\VC\TOOLS\MSVC\14.16.27023\INCLUDE\XSTDDEF
C:\PROGRAM FILES (X86)\MICROSOFT VISUAL STUDIO\2017\COMMUNITY\VC\TOOLS\MSVC\14.16.27023\INCLUDE\CSTDDEF
C:\PROGRAM FILES (X86)\MICROSOFT VISUAL STUDIO\2017\COMMUNITY\VC\TOOLS\MSVC\14.16.27023\INCLUDE\INITIALIZER_LIST
C:\PROGRAM FILES (X86)\WINDOWS KITS\10\INCLUDE\10.0.16299.0\UCRT\MALLOC.H
C:\PROGRAM FILES (X86)\MICROSOFT VISUAL STUDIO\2017\COMMUNITY\VC\TOOLS\MSVC\14.16.27023\INCLUDE\VCRUNTIME_EXCEPTION.H
C:\PROGRAM FILES (X86)\MICROSOFT VISUAL STUDIO\2017\COMMUNITY\VC\TOOLS\MSVC\14.16.27023\INCLUDE\EH.H
C:\PROGRAM FILES (X86)\WINDOWS KITS\10\INCLUDE\10.0.16299.0\UCRT\CORECRT_TERMINATE.H
C:\PROGRAM FILES (X86)\MICROSOFT VISUAL STUDIO\2017\COMMUNITY\VC\TOOLS\MSVC\14.16.27023\INCLUDE\XSTRING
C:\PROGRAM FILES (X86)\MICROSOFT VISUAL STUDIO\2017\COMMUNITY\VC\TOOLS\MSVC\14.16.27023\INCLUDE\XMEMORY0
C:\PROGRAM FILES (X86)\MICROSOFT VISUAL STUDIO\2017\COMMUNITY\VC\TOOLS\MSVC\14.16.27023\INCLUDE\CSTDINT
C:\PROGRAM FILES (X86)\MICROSOFT VISUAL STUDIO\2017\COMMUNITY\VC\TOOLS\MSVC\14.16.27023\INCLUDE\STDINT.H
C:\PROGRAM FILES (X86)\MICROSOFT VISUAL STUDIO\2017\COMMUNITY\VC\TOOLS\MSVC\14.16.27023\INCLUDE\LIMITS
C:\PROGRAM FILES (X86)\MICROSOFT VISUAL STUDIO\2017\COMMUNITY\VC\TOOLS\MSVC\14.16.27023\INCLUDE\YMATH.H
C:\PROGRAM FILES (X86)\MICROSOFT VISUAL STUDIO\2017\COMMUNITY\VC\TOOLS\MSVC\14.16.27023\INCLUDE\CFLOAT
C:\PROGRAM FILES (X86)\WINDOWS KITS\10\INCLUDE\10.0.16299.0\UCRT\FLOAT.H
C:\PROGRAM FILES (X86)\MICROSOFT VISUAL STUDIO\2017\COMMUNITY\VC\TOOLS\MSVC\14.16.27023\INCLUDE\CWCHAR
C:\PROGRAM FILES (X86)\WINDOWS KITS\10\INCLUDE\10.0.16299.0\UCRT\WCHAR.H
C:\PROGRAM FILES (X86)\WINDOWS KITS\10\INCLUDE\10.0.16299.0\UCRT\CORECRT_WCONIO.H
C:\PROGRAM FILES (X86)\WINDOWS KITS\10\INCLUDE\10.0.16299.0\UCRT\CORECRT_WCTYPE.H
C:\PROGRAM FILES (X86)\WINDOWS KITS\10\INCLUDE\10.0.16299.0\UCRT\CORECRT_WDIRECT.H
C:\PROGRAM FILES (X86)\WINDOWS KITS\10\INCLUDE\10.0.16299.0\UCRT\CORECRT_WIO.H
C:\PROGRAM FILES (X86)\WINDOWS KITS\10\INCLUDE\10.0.16299.0\UCRT\CORECRT_SHARE.H
C:\PROGRAM FILES (X86)\WINDOWS KITS\10\INCLUDE\10.0.16299.0\UCRT\CORECRT_WPROCESS.H
C:\PROGRAM FILES (X86)\WINDOWS KITS\10\INCLUDE\10.0.16299.0\UCRT\CORECRT_WTIME.H
C:\PROGRAM FILES (X86)\WINDOWS KITS\10\INCLUDE\10.0.16299.0\UCRT\SYS\STAT.H
C:\PROGRAM FILES (X86)\WINDOWS KITS\10\INCLUDE\10.0.16299.0\UCRT\SYS\TYPES.H
C:\PROGRAM FILES (X86)\MICROSOFT VISUAL STUDIO\2017\COMMUNITY\VC\TOOLS\MSVC\14.16.27023\INCLUDE\NEW
C:\PROGRAM FILES (X86)\MICROSOFT VISUAL STUDIO\2017\COMMUNITY\VC\TOOLS\MSVC\14.16.27023\INCLUDE\XUTILITY
C:\PROGRAM FILES (X86)\MICROSOFT VISUAL STUDIO\2017\COMMUNITY\VC\TOOLS\MSVC\14.16.27023\INCLUDE\UTILITY
C:\PROGRAM FILES (X86)\MICROSOFT VISUAL STUDIO\2017\COMMUNITY\VC\TOOLS\MSVC\14.16.27023\INCLUDE\IOSFWD
C:\PROGRAM FILES (X86)\MICROSOFT VISUAL STUDIO\2017\COMMUNITY\VC\TOOLS\MSVC\14.16.27023\INCLUDE\XATOMIC0.H
C:\PROGRAM FILES (X86)\MICROSOFT VISUAL STUDIO\2017\COMMUNITY\VC\TOOLS\MSVC\14.16.27023\INCLUDE\INTRIN0.H
C:\PROGRAM FILES (X86)\MICROSOFT VISUAL STUDIO\2017\COMMUNITY\VC\TOOLS\MSVC\14.16.27023\INCLUDE\TYPEINFO
C:\PROGRAM FILES (X86)\MICROSOFT VISUAL STUDIO\2017\COMMUNITY\VC\TOOLS\MSVC\14.16.27023\INCLUDE\VCRUNTIME_TYPEINFO.H
C:\PROGRAM FILES (X86)\MICROSOFT VISUAL STUDIO\2017\COMMUNITY\VC\TOOLS\MSVC\14.16.27023\INCLUDE\XLOCINFO
C:\PROGRAM FILES (X86)\MICROSOFT VISUAL STUDIO\2017\COMMUNITY\VC\TOOLS\MSVC\14.16.27023\INCLUDE\XLOCINFO.H
C:\PROGRAM FILES (X86)\WINDOWS KITS\10\INCLUDE\10.0.16299.0\UCRT\CTYPE.H
C:\PROGRAM FILES (X86)\WINDOWS KITS\10\INCLUDE\10.0.16299.0\UCRT\LOCALE.H
C:\PROGRAM FILES (X86)\MICROSOFT VISUAL STUDIO\2017\COMMUNITY\VC\TOOLS\MSVC\14.16.27023\INCLUDE\MEMORY
C:\PROGRAM FILES (X86)\MICROSOFT VISUAL STUDIO\2017\COMMUNITY\VC\TOOLS\MSVC\14.16.27023\INCLUDE\XMEMORY
C:\PROGRAM FILES (X86)\MICROSOFT VISUAL STUDIO\2017\COMMUNITY\VC\TOOLS\MSVC\14.16.27023\INCLUDE\XFACET
C:\PROGRAM FILES (X86)\MICROSOFT VISUAL STUDIO\2017\COMMUNITY\VC\TOOLS\MSVC\14.16.27023\INCLUDE\SYSTEM_ERROR
C:\PROGRAM FILES (X86)\MICROSOFT VISUAL STUDIO\2017\COMMUNITY\VC\TOOLS\MSVC\14.16.27023\INCLUDE\CERRNO
C:\PROGRAM FILES (X86)\MICROSOFT VISUAL STUDIO\2017\COMMUNITY\VC\TOOLS\MSVC\14.16.27023\INCLUDE\XCALL_ONCE.H
C:\PROGRAM FILES (X86)\MICROSOFT VISUAL STUDIO\2017\COMMUNITY\VC\TOOLS\MSVC\14.16.27023\INCLUDE\XERRC.H
C:\PROGRAM FILES (X86)\WINDOWS KITS\10\INCLUDE\10.0.16299.0\UCRT\SHARE.H
C:\PROGRAM FILES (X86)\MICROSOFT VISUAL STUDIO\2017\COMMUNITY\VC\TOOLS\MSVC\14.16.27023\INCLUDE\SSTREAM
C:\PROGRAM FILES (X86)\MICROSOFT VISUAL STUDIO\2017\COMMUNITY\VC\TOOLS\MSVC\14.16.27023\INCLUDE\STRING
C:\PROGRAM FILES (X86)\MICROSOFT VISUAL STUDIO\2017\COMMUNITY\VC\TOOLS\MSVC\14.16.27023\INCLUDE\XSTRING_INSERT.H
C:\PROGRAM FILES (X86)\MICROSOFT VISUAL STUDIO\2017\COMMUNITY\VC\TOOLS\MSVC\14.16.27023\INCLUDE\CTIME
C:\PROGRAM FILES (X86)\WINDOWS KITS\10\INCLUDE\10.0.16299.0\UCRT\TIME.H
D:\WORKSPACE\PROJECTS\PONG\PONG\LIB\SFML-2.5.1\INCLUDE\SFML\GRAPHICS.HPP
D:\WORKSPACE\PROJECTS\PONG\PONG\LIB\SFML-2.5.1\INCLUDE\SFML\WINDOW.HPP
D:\WORKSPACE\PROJECTS\PONG\PONG\LIB\SFML-2.5.1\INCLUDE\SFML\SYSTEM.HPP
D:\WORKSPACE\PROJECTS\PONG\PONG\LIB\SFML-2.5.1\INCLUDE\SFML\CONFIG.HPP
D:\WORKSPACE\PROJECTS\PONG\PONG\LIB\SFML-2.5.1\INCLUDE\SFML\SYSTEM\CLOCK.HPP
D:\WORKSPACE\PROJECTS\PONG\PONG\LIB\SFML-2.5.1\INCLUDE\SFML\SYSTEM\EXPORT.HPP
D:\WORKSPACE\PROJECTS\PONG\PONG\LIB\SFML-2.5.1\INCLUDE\SFML\SYSTEM\TIME.HPP
D:\WORKSPACE\PROJECTS\PONG\PONG\LIB\SFML-2.5.1\INCLUDE\SFML\SYSTEM\ERR.HPP
D:\WORKSPACE\PROJECTS\PONG\PONG\LIB\SFML-2.5.1\INCLUDE\SFML\SYSTEM\FILEINPUTSTREAM.HPP
D:\WORKSPACE\PROJECTS\PONG\PONG\LIB\SFML-2.5.1\INCLUDE\SFML\SYSTEM\INPUTSTREAM.HPP
D:\WORKSPACE\PROJECTS\PONG\PONG\LIB\SFML-2.5.1\INCLUDE\SFML\SYSTEM\NONCOPYABLE.HPP
D:\WORKSPACE\PROJECTS\PONG\PONG\LIB\SFML-2.5.1\INCLUDE\SFML\SYSTEM\LOCK.HPP
D:\WORKSPACE\PROJECTS\PONG\PONG\LIB\SFML-2.5.1\INCLUDE\SFML\SYSTEM\MEMORYINPUTSTREAM.HPP
D:\WORKSPACE\PROJECTS\PONG\PONG\LIB\SFML-2.5.1\INCLUDE\SFML\SYSTEM\MUTEX.HPP
D:\WORKSPACE\PROJECTS\PONG\PONG\LIB\SFML-2.5.1\INCLUDE\SFML\SYSTEM\SLEEP.HPP
D:\WORKSPACE\PROJECTS\PONG\PONG\LIB\SFML-2.5.1\INCLUDE\SFML\SYSTEM\STRING.HPP
D:\WORKSPACE\PROJECTS\PONG\PONG\LIB\SFML-2.5.1\INCLUDE\SFML\SYSTEM\UTF.HPP
C:\PROGRAM FILES (X86)\MICROSOFT VISUAL STUDIO\2017\COMMUNITY\VC\TOOLS\MSVC\14.16.27023\INCLUDE\ALGORITHM
C:\PROGRAM FILES (X86)\MICROSOFT VISUAL STUDIO\2017\COMMUNITY\VC\TOOLS\MSVC\14.16.27023\INCLUDE\LOCALE
C:\PROGRAM FILES (X86)\MICROSOFT VISUAL STUDIO\2017\COMMUNITY\VC\TOOLS\MSVC\14.16.27023\INCLUDE\XLOCBUF
C:\PROGRAM FILES (X86)\MICROSOFT VISUAL STUDIO\2017\COMMUNITY\VC\TOOLS\MSVC\14.16.27023\INCLUDE\XLOCMES
C:\PROGRAM FILES (X86)\MICROSOFT VISUAL STUDIO\2017\COMMUNITY\VC\TOOLS\MSVC\14.16.27023\INCLUDE\XLOCMON
C:\PROGRAM FILES (X86)\MICROSOFT VISUAL STUDIO\2017\COMMUNITY\VC\TOOLS\MSVC\14.16.27023\INCLUDE\XLOCTIME
D:\WORKSPACE\PROJECTS\PONG\PONG\LIB\SFML-2.5.1\INCLUDE\SFML\SYSTEM\UTF.INL
C:\PROGRAM FILES (X86)\MICROSOFT VISUAL STUDIO\2017\COMMUNITY\VC\TOOLS\MSVC\14.16.27023\INCLUDE\ITERATOR
D:\WORKSPACE\PROJECTS\PONG\PONG\LIB\SFML-2.5.1\INCLUDE\SFML\SYSTEM\STRING.INL
D:\WORKSPACE\PROJECTS\PONG\PONG\LIB\SFML-2.5.1\INCLUDE\SFML\SYSTEM\THREAD.HPP
D:\WORKSPACE\PROJECTS\PONG\PONG\LIB\SFML-2.5.1\INCLUDE\SFML\SYSTEM\THREAD.INL
D:\WORKSPACE\PROJECTS\PONG\PONG\LIB\SFML-2.5.1\INCLUDE\SFML\SYSTEM\THREADLOCAL.HPP
D:\WORKSPACE\PROJECTS\PONG\PONG\LIB\SFML-2.5.1\INCLUDE\SFML\SYSTEM\THREADLOCALPTR.HPP
D:\WORKSPACE\PROJECTS\PONG\PONG\LIB\SFML-2.5.1\INCLUDE\SFML\SYSTEM\THREADLOCALPTR.INL
D:\WORKSPACE\PROJECTS\PONG\PONG\LIB\SFML-2.5.1\INCLUDE\SFML\SYSTEM\VECTOR2.HPP
D:\WORKSPACE\PROJECTS\PONG\PONG\LIB\SFML-2.5.1\INCLUDE\SFML\SYSTEM\VECTOR2.INL
D:\WORKSPACE\PROJECTS\PONG\PONG\LIB\SFML-2.5.1\INCLUDE\SFML\SYSTEM\VECTOR3.HPP
D:\WORKSPACE\PROJECTS\PONG\PONG\LIB\SFML-2.5.1\INCLUDE\SFML\SYSTEM\VECTOR3.INL
D:\WORKSPACE\PROJECTS\PONG\PONG\LIB\SFML-2.5.1\INCLUDE\SFML\WINDOW\CLIPBOARD.HPP
D:\WORKSPACE\PROJECTS\PONG\PONG\LIB\SFML-2.5.1\INCLUDE\SFML\WINDOW\EXPORT.HPP
D:\WORKSPACE\PROJECTS\PONG\PONG\LIB\SFML-2.5.1\INCLUDE\SFML\WINDOW\CONTEXT.HPP
D:\WORKSPACE\PROJECTS\PONG\PONG\LIB\SFML-2.5.1\INCLUDE\SFML\WINDOW\GLRESOURCE.HPP
D:\WORKSPACE\PROJECTS\PONG\PONG\LIB\SFML-2.5.1\INCLUDE\SFML\WINDOW\CONTEXTSETTINGS.HPP
D:\WORKSPACE\PROJECTS\PONG\PONG\LIB\SFML-2.5.1\INCLUDE\SFML\WINDOW\CURSOR.HPP
D:\WORKSPACE\PROJECTS\PONG\PONG\LIB\SFML-2.5.1\INCLUDE\SFML\WINDOW\EVENT.HPP
D:\WORKSPACE\PROJECTS\PONG\PONG\LIB\SFML-2.5.1\INCLUDE\SFML\WINDOW\JOYSTICK.HPP
D:\WORKSPACE\PROJECTS\PONG\PONG\LIB\SFML-2.5.1\INCLUDE\SFML\WINDOW\KEYBOARD.HPP
D:\WORKSPACE\PROJECTS\PONG\PONG\LIB\SFML-2.5.1\INCLUDE\SFML\WINDOW\MOUSE.HPP
D:\WORKSPACE\PROJECTS\PONG\PONG\LIB\SFML-2.5.1\INCLUDE\SFML\WINDOW\SENSOR.HPP
D:\WORKSPACE\PROJECTS\PONG\PONG\LIB\SFML-2.5.1\INCLUDE\SFML\WINDOW\TOUCH.HPP
D:\WORKSPACE\PROJECTS\PONG\PONG\LIB\SFML-2.5.1\INCLUDE\SFML\WINDOW\VIDEOMODE.HPP
C:\PROGRAM FILES (X86)\MICROSOFT VISUAL STUDIO\2017\COMMUNITY\VC\TOOLS\MSVC\14.16.27023\INCLUDE\VECTOR
D:\WORKSPACE\PROJECTS\PONG\PONG\LIB\SFML-2.5.1\INCLUDE\SFML\WINDOW\WINDOW.HPP
D:\WORKSPACE\PROJECTS\PONG\PONG\LIB\SFML-2.5.1\INCLUDE\SFML\WINDOW\WINDOWHANDLE.HPP
D:\WORKSPACE\PROJECTS\PONG\PONG\LIB\SFML-2.5.1\INCLUDE\SFML\WINDOW\WINDOWSTYLE.HPP
D:\WORKSPACE\PROJECTS\PONG\PONG\LIB\SFML-2.5.1\INCLUDE\SFML\GRAPHICS\BLENDMODE.HPP
D:\WORKSPACE\PROJECTS\PONG\PONG\LIB\SFML-2.5.1\INCLUDE\SFML\GRAPHICS\EXPORT.HPP
D:\WORKSPACE\PROJECTS\PONG\PONG\LIB\SFML-2.5.1\INCLUDE\SFML\GRAPHICS\CIRCLESHAPE.HPP
D:\WORKSPACE\PROJECTS\PONG\PONG\LIB\SFML-2.5.1\INCLUDE\SFML\GRAPHICS\SHAPE.HPP
D:\WORKSPACE\PROJECTS\PONG\PONG\LIB\SFML-2.5.1\INCLUDE\SFML\GRAPHICS\DRAWABLE.HPP
D:\WORKSPACE\PROJECTS\PONG\PONG\LIB\SFML-2.5.1\INCLUDE\SFML\GRAPHICS\RENDERSTATES.HPP
D:\WORKSPACE\PROJECTS\PONG\PONG\LIB\SFML-2.5.1\INCLUDE\SFML\GRAPHICS\TRANSFORM.HPP
D:\WORKSPACE\PROJECTS\PONG\PONG\LIB\SFML-2.5.1\INCLUDE\SFML\GRAPHICS\RECT.HPP
D:\WORKSPACE\PROJECTS\PONG\PONG\LIB\SFML-2.5.1\INCLUDE\SFML\GRAPHICS\RECT.INL
D:\WORKSPACE\PROJECTS\PONG\PONG\LIB\SFML-2.5.1\INCLUDE\SFML\GRAPHICS\TRANSFORMABLE.HPP
D:\WORKSPACE\PROJECTS\PONG\PONG\LIB\SFML-2.5.1\INCLUDE\SFML\GRAPHICS\VERTEXARRAY.HPP
D:\WORKSPACE\PROJECTS\PONG\PONG\LIB\SFML-2.5.1\INCLUDE\SFML\GRAPHICS\VERTEX.HPP
D:\WORKSPACE\PROJECTS\PONG\PONG\LIB\SFML-2.5.1\INCLUDE\SFML\GRAPHICS\COLOR.HPP
D:\WORKSPACE\PROJECTS\PONG\PONG\LIB\SFML-2.5.1\INCLUDE\SFML\GRAPHICS\PRIMITIVETYPE.HPP
D:\WORKSPACE\PROJECTS\PONG\PONG\LIB\SFML-2.5.1\INCLUDE\SFML\GRAPHICS\CONVEXSHAPE.HPP
D:\WORKSPACE\PROJECTS\PONG\PONG\LIB\SFML-2.5.1\INCLUDE\SFML\GRAPHICS\FONT.HPP
D:\WORKSPACE\PROJECTS\PONG\PONG\LIB\SFML-2.5.1\INCLUDE\SFML\GRAPHICS\GLYPH.HPP
D:\WORKSPACE\PROJECTS\PONG\PONG\LIB\SFML-2.5.1\INCLUDE\SFML\GRAPHICS\TEXTURE.HPP
D:\WORKSPACE\PROJECTS\PONG\PONG\LIB\SFML-2.5.1\INCLUDE\SFML\GRAPHICS\IMAGE.HPP
C:\PROGRAM FILES (X86)\MICROSOFT VISUAL STUDIO\2017\COMMUNITY\VC\TOOLS\MSVC\14.16.27023\INCLUDE\MAP
C:\PROGRAM FILES (X86)\MICROSOFT VISUAL STUDIO\2017\COMMUNITY\VC\TOOLS\MSVC\14.16.27023\INCLUDE\TUPLE
C:\PROGRAM FILES (X86)\MICROSOFT VISUAL STUDIO\2017\COMMUNITY\VC\TOOLS\MSVC\14.16.27023\INCLUDE\XTREE
D:\WORKSPACE\PROJECTS\PONG\PONG\LIB\SFML-2.5.1\INCLUDE\SFML\GRAPHICS\RECTANGLESHAPE.HPP
D:\WORKSPACE\PROJECTS\PONG\PONG\LIB\SFML-2.5.1\INCLUDE\SFML\GRAPHICS\RENDERTARGET.HPP
D:\WORKSPACE\PROJECTS\PONG\PONG\LIB\SFML-2.5.1\INCLUDE\SFML\GRAPHICS\VIEW.HPP
D:\WORKSPACE\PROJECTS\PONG\PONG\LIB\SFML-2.5.1\INCLUDE\SFML\GRAPHICS\RENDERTEXTURE.HPP
D:\WORKSPACE\PROJECTS\PONG\PONG\LIB\SFML-2.5.1\INCLUDE\SFML\GRAPHICS\RENDERWINDOW.HPP
D:\WORKSPACE\PROJECTS\PONG\PONG\LIB\SFML-2.5.1\INCLUDE\SFML\GRAPHICS\SHADER.HPP
D:\WORKSPACE\PROJECTS\PONG\PONG\LIB\SFML-2.5.1\INCLUDE\SFML\GRAPHICS\GLSL.HPP
D:\WORKSPACE\PROJECTS\PONG\PONG\LIB\SFML-2.5.1\INCLUDE\SFML\GRAPHICS\GLSL.INL
D:\WORKSPACE\PROJECTS\PONG\PONG\LIB\SFML-2.5.1\INCLUDE\SFML\GRAPHICS\SPRITE.HPP
D:\WORKSPACE\PROJECTS\PONG\PONG\LIB\SFML-2.5.1\INCLUDE\SFML\GRAPHICS\TEXT.HPP
D:\WORKSPACE\PROJECTS\PONG\PONG\LIB\SFML-2.5.1\INCLUDE\SFML\GRAPHICS\VERTEXBUFFER.HPP
D:\WORKSPACE\PROJECTS\PONG\PONG\LIB\SFML-2.5.1\INCLUDE\SFML\AUDIO.HPP
D:\WORKSPACE\PROJECTS\PONG\PONG\LIB\SFML-2.5.1\INCLUDE\SFML\AUDIO\INPUTSOUNDFILE.HPP
D:\WORKSPACE\PROJECTS\PONG\PONG\LIB\SFML-2.5.1\INCLUDE\SFML\AUDIO\EXPORT.HPP
D:\WORKSPACE\PROJECTS\PONG\PONG\LIB\SFML-2.5.1\INCLUDE\SFML\AUDIO\LISTENER.HPP
D:\WORKSPACE\PROJECTS\PONG\PONG\LIB\SFML-2.5.1\INCLUDE\SFML\AUDIO\MUSIC.HPP
D:\WORKSPACE\PROJECTS\PONG\PONG\LIB\SFML-2.5.1\INCLUDE\SFML\AUDIO\SOUNDSTREAM.HPP
D:\WORKSPACE\PROJECTS\PONG\PONG\LIB\SFML-2.5.1\INCLUDE\SFML\AUDIO\SOUNDSOURCE.HPP
D:\WORKSPACE\PROJECTS\PONG\PONG\LIB\SFML-2.5.1\INCLUDE\SFML\AUDIO\ALRESOURCE.HPP
D:\WORKSPACE\PROJECTS\PONG\PONG\LIB\SFML-2.5.1\INCLUDE\SFML\AUDIO\OUTPUTSOUNDFILE.HPP
D:\WORKSPACE\PROJECTS\PONG\PONG\LIB\SFML-2.5.1\INCLUDE\SFML\AUDIO\SOUND.HPP
D:\WORKSPACE\PROJECTS\PONG\PONG\LIB\SFML-2.5.1\INCLUDE\SFML\AUDIO\SOUNDBUFFER.HPP
C:\PROGRAM FILES (X86)\MICROSOFT VISUAL STUDIO\2017\COMMUNITY\VC\TOOLS\MSVC\14.16.27023\INCLUDE\SET
D:\WORKSPACE\PROJECTS\PONG\PONG\LIB\SFML-2.5.1\INCLUDE\SFML\AUDIO\SOUNDBUFFERRECORDER.HPP
D:\WORKSPACE\PROJECTS\PONG\PONG\LIB\SFML-2.5.1\INCLUDE\SFML\AUDIO\SOUNDRECORDER.HPP
D:\WORKSPACE\PROJECTS\PONG\PONG\LIB\SFML-2.5.1\INCLUDE\SFML\AUDIO\SOUNDFILEFACTORY.HPP
D:\WORKSPACE\PROJECTS\PONG\PONG\LIB\SFML-2.5.1\INCLUDE\SFML\AUDIO\SOUNDFILEFACTORY.INL
D:\WORKSPACE\PROJECTS\PONG\PONG\LIB\SFML-2.5.1\INCLUDE\SFML\AUDIO\SOUNDFILEREADER.HPP
D:\WORKSPACE\PROJECTS\PONG\PONG\LIB\SFML-2.5.1\INCLUDE\SFML\AUDIO\SOUNDFILEWRITER.HPP
D:\WORKSPACE\PROJECTS\PONG\PONG\PONG\PONG.H
D:\WORKSPACE\PROJECTS\PONG\PONG\PONG\BALL.H
D:\WORKSPACE\PROJECTS\PONG\PONG\UTIL.H
D:\WORKSPACE\PROJECTS\PONG\PONG\PONG\PADDLE.H
^D:\WORKSPACE\PROJECTS\PONG\PONG\PONG\BALL.CPP
C:\PROGRAM FILES (X86)\MICROSOFT VISUAL STUDIO\2017\COMMUNITY\VC\TOOLS\MSVC\14.16.27023\BIN\HOSTX86\X64\1031\CLUI.DLL
C:\WINDOWS\GLOBALIZATION\SORTING\SORTDEFAULT.NLS
C:\WINDOWS\SYSTEM32\TZRES.DLL
D:\WORKSPACE\PROJECTS\PONG\PONG\PONG\BALL.H
C:\PROGRAM FILES (X86)\MICROSOFT VISUAL STUDIO\2017\COMMUNITY\VC\TOOLS\MSVC\14.16.27023\INCLUDE\IOSTREAM
C:\PROGRAM FILES (X86)\MICROSOFT VISUAL STUDIO\2017\COMMUNITY\VC\TOOLS\MSVC\14.16.27023\INCLUDE\ISTREAM
C:\PROGRAM FILES (X86)\MICROSOFT VISUAL STUDIO\2017\COMMUNITY\VC\TOOLS\MSVC\14.16.27023\INCLUDE\OSTREAM
C:\PROGRAM FILES (X86)\MICROSOFT VISUAL STUDIO\2017\COMMUNITY\VC\TOOLS\MSVC\14.16.27023\INCLUDE\IOS
C:\PROGRAM FILES (X86)\MICROSOFT VISUAL STUDIO\2017\COMMUNITY\VC\TOOLS\MSVC\14.16.27023\INCLUDE\XLOCNUM
C:\PROGRAM FILES (X86)\MICROSOFT VISUAL STUDIO\2017\COMMUNITY\VC\TOOLS\MSVC\14.16.27023\INCLUDE\CLIMITS
C:\PROGRAM FILES (X86)\MICROSOFT VISUAL STUDIO\2017\COMMUNITY\VC\TOOLS\MSVC\14.16.27023\INCLUDE\YVALS.H
C:\PROGRAM FILES (X86)\MICROSOFT VISUAL STUDIO\2017\COMMUNITY\VC\TOOLS\MSVC\14.16.27023\INCLUDE\YVALS_CORE.H
C:\PROGRAM FILES (X86)\MICROSOFT VISUAL STUDIO\2017\COMMUNITY\VC\TOOLS\MSVC\14.16.27023\INCLUDE\XKEYCHECK.H
C:\PROGRAM FILES (X86)\MICROSOFT VISUAL STUDIO\2017\COMMUNITY\VC\TOOLS\MSVC\14.16.27023\INCLUDE\CRTDEFS.H
C:\PROGRAM FILES (X86)\MICROSOFT VISUAL STUDIO\2017\COMMUNITY\VC\TOOLS\MSVC\14.16.27023\INCLUDE\VCRUNTIME.H
C:\PROGRAM FILES (X86)\MICROSOFT VISUAL STUDIO\2017\COMMUNITY\VC\TOOLS\MSVC\14.16.27023\INCLUDE\SAL.H
C:\PROGRAM FILES (X86)\MICROSOFT VISUAL STUDIO\2017\COMMUNITY\VC\TOOLS\MSVC\14.16.27023\INCLUDE\CONCURRENCYSAL.H
C:\PROGRAM FILES (X86)\MICROSOFT VISUAL STUDIO\2017\COMMUNITY\VC\TOOLS\MSVC\14.16.27023\INCLUDE\VADEFS.H
C:\PROGRAM FILES (X86)\WINDOWS KITS\10\INCLUDE\10.0.16299.0\UCRT\CORECRT.H
C:\PROGRAM FILES (X86)\WINDOWS KITS\10\INCLUDE\10.0.16299.0\UCRT\CRTDBG.H
C:\PROGRAM FILES (X86)\MICROSOFT VISUAL STUDIO\2017\COMMUNITY\VC\TOOLS\MSVC\14.16.27023\INCLUDE\VCRUNTIME_NEW_DEBUG.H
C:\PROGRAM FILES (X86)\MICROSOFT VISUAL STUDIO\2017\COMMUNITY\VC\TOOLS\MSVC\14.16.27023\INCLUDE\VCRUNTIME_NEW.H
C:\PROGRAM FILES (X86)\MICROSOFT VISUAL STUDIO\2017\COMMUNITY\VC\TOOLS\MSVC\14.16.27023\INCLUDE\USE_ANSI.H
C:\PROGRAM FILES (X86)\MICROSOFT VISUAL STUDIO\2017\COMMUNITY\VC\TOOLS\MSVC\14.16.27023\INCLUDE\LIMITS.H
C:\PROGRAM FILES (X86)\MICROSOFT VISUAL STUDIO\2017\COMMUNITY\VC\TOOLS\MSVC\14.16.27023\INCLUDE\CMATH
C:\PROGRAM FILES (X86)\MICROSOFT VISUAL STUDIO\2017\COMMUNITY\VC\TOOLS\MSVC\14.16.27023\INCLUDE\CSTDLIB
C:\PROGRAM FILES (X86)\WINDOWS KITS\10\INCLUDE\10.0.16299.0\UCRT\STDLIB.H
C:\PROGRAM FILES (X86)\WINDOWS KITS\10\INCLUDE\10.0.16299.0\UCRT\CORECRT_MALLOC.H
C:\PROGRAM FILES (X86)\WINDOWS KITS\10\INCLUDE\10.0.16299.0\UCRT\CORECRT_SEARCH.H
C:\PROGRAM FILES (X86)\WINDOWS KITS\10\INCLUDE\10.0.16299.0\UCRT\STDDEF.H
C:\PROGRAM FILES (X86)\WINDOWS KITS\10\INCLUDE\10.0.16299.0\UCRT\CORECRT_WSTDLIB.H
C:\PROGRAM FILES (X86)\WINDOWS KITS\10\INCLUDE\10.0.16299.0\UCRT\MATH.H
C:\PROGRAM FILES (X86)\WINDOWS KITS\10\INCLUDE\10.0.16299.0\UCRT\CORECRT_MATH.H
C:\PROGRAM FILES (X86)\MICROSOFT VISUAL STUDIO\2017\COMMUNITY\VC\TOOLS\MSVC\14.16.27023\INCLUDE\XTGMATH.H
C:\PROGRAM FILES (X86)\MICROSOFT VISUAL STUDIO\2017\COMMUNITY\VC\TOOLS\MSVC\14.16.27023\INCLUDE\XTR1COMMON
C:\PROGRAM FILES (X86)\MICROSOFT VISUAL STUDIO\2017\COMMUNITY\VC\TOOLS\MSVC\14.16.27023\INCLUDE\CSTDIO
C:\PROGRAM FILES (X86)\WINDOWS KITS\10\INCLUDE\10.0.16299.0\UCRT\STDIO.H
C:\PROGRAM FILES (X86)\WINDOWS KITS\10\INCLUDE\10.0.16299.0\UCRT\CORECRT_WSTDIO.H
C:\PROGRAM FILES (X86)\WINDOWS KITS\10\INCLUDE\10.0.16299.0\UCRT\CORECRT_STDIO_CONFIG.H
C:\PROGRAM FILES (X86)\MICROSOFT VISUAL STUDIO\2017\COMMUNITY\VC\TOOLS\MSVC\14.16.27023\INCLUDE\STREAMBUF
C:\PROGRAM FILES (X86)\MICROSOFT VISUAL STUDIO\2017\COMMUNITY\VC\TOOLS\MSVC\14.16.27023\INCLUDE\XIOSBASE
C:\PROGRAM FILES (X86)\MICROSOFT VISUAL STUDIO\2017\COMMUNITY\VC\TOOLS\MSVC\14.16.27023\INCLUDE\XLOCALE
C:\PROGRAM FILES (X86)\MICROSOFT VISUAL STUDIO\2017\COMMUNITY\VC\TOOLS\MSVC\14.16.27023\INCLUDE\CSTRING
C:\PROGRAM FILES (X86)\WINDOWS KITS\10\INCLUDE\10.0.16299.0\UCRT\STRING.H
C:\PROGRAM FILES (X86)\WINDOWS KITS\10\INCLUDE\10.0.16299.0\UCRT\CORECRT_MEMORY.H
C:\PROGRAM FILES (X86)\WINDOWS KITS\10\INCLUDE\10.0.16299.0\UCRT\CORECRT_MEMCPY_S.H
C:\PROGRAM FILES (X86)\WINDOWS KITS\10\INCLUDE\10.0.16299.0\UCRT\ERRNO.H
C:\PROGRAM FILES (X86)\MICROSOFT VISUAL STUDIO\2017\COMMUNITY\VC\TOOLS\MSVC\14.16.27023\INCLUDE\VCRUNTIME_STRING.H
C:\PROGRAM FILES (X86)\WINDOWS KITS\10\INCLUDE\10.0.16299.0\UCRT\CORECRT_WSTRING.H
C:\PROGRAM FILES (X86)\MICROSOFT VISUAL STUDIO\2017\COMMUNITY\VC\TOOLS\MSVC\14.16.27023\INCLUDE\STDEXCEPT
C:\PROGRAM FILES (X86)\MICROSOFT VISUAL STUDIO\2017\COMMUNITY\VC\TOOLS\MSVC\14.16.27023\INCLUDE\EXCEPTION
C:\PROGRAM FILES (X86)\MICROSOFT VISUAL STUDIO\2017\COMMUNITY\VC\TOOLS\MSVC\14.16.27023\INCLUDE\TYPE_TRAITS
C:\PROGRAM FILES (X86)\MICROSOFT VISUAL STUDIO\2017\COMMUNITY\VC\TOOLS\MSVC\14.16.27023\INCLUDE\XSTDDEF
C:\PROGRAM FILES (X86)\MICROSOFT VISUAL STUDIO\2017\COMMUNITY\VC\TOOLS\MSVC\14.16.27023\INCLUDE\CSTDDEF
C:\PROGRAM FILES (X86)\MICROSOFT VISUAL STUDIO\2017\COMMUNITY\VC\TOOLS\MSVC\14.16.27023\INCLUDE\INITIALIZER_LIST
C:\PROGRAM FILES (X86)\WINDOWS KITS\10\INCLUDE\10.0.16299.0\UCRT\MALLOC.H
C:\PROGRAM FILES (X86)\MICROSOFT VISUAL STUDIO\2017\COMMUNITY\VC\TOOLS\MSVC\14.16.27023\INCLUDE\VCRUNTIME_EXCEPTION.H
C:\PROGRAM FILES (X86)\MICROSOFT VISUAL STUDIO\2017\COMMUNITY\VC\TOOLS\MSVC\14.16.27023\INCLUDE\EH.H
C:\PROGRAM FILES (X86)\WINDOWS KITS\10\INCLUDE\10.0.16299.0\UCRT\CORECRT_TERMINATE.H
C:\PROGRAM FILES (X86)\MICROSOFT VISUAL STUDIO\2017\COMMUNITY\VC\TOOLS\MSVC\14.16.27023\INCLUDE\XSTRING
C:\PROGRAM FILES (X86)\MICROSOFT VISUAL STUDIO\2017\COMMUNITY\VC\TOOLS\MSVC\14.16.27023\INCLUDE\XMEMORY0
C:\PROGRAM FILES (X86)\MICROSOFT VISUAL STUDIO\2017\COMMUNITY\VC\TOOLS\MSVC\14.16.27023\INCLUDE\CSTDINT
C:\PROGRAM FILES (X86)\MICROSOFT VISUAL STUDIO\2017\COMMUNITY\VC\TOOLS\MSVC\14.16.27023\INCLUDE\STDINT.H
C:\PROGRAM FILES (X86)\MICROSOFT VISUAL STUDIO\2017\COMMUNITY\VC\TOOLS\MSVC\14.16.27023\INCLUDE\LIMITS
C:\PROGRAM FILES (X86)\MICROSOFT VISUAL STUDIO\2017\COMMUNITY\VC\TOOLS\MSVC\14.16.27023\INCLUDE\YMATH.H
C:\PROGRAM FILES (X86)\MICROSOFT VISUAL STUDIO\2017\COMMUNITY\VC\TOOLS\MSVC\14.16.27023\INCLUDE\CFLOAT
C:\PROGRAM FILES (X86)\WINDOWS KITS\10\INCLUDE\10.0.16299.0\UCRT\FLOAT.H
C:\PROGRAM FILES (X86)\MICROSOFT VISUAL STUDIO\2017\COMMUNITY\VC\TOOLS\MSVC\14.16.27023\INCLUDE\CWCHAR
C:\PROGRAM FILES (X86)\WINDOWS KITS\10\INCLUDE\10.0.16299.0\UCRT\WCHAR.H
C:\PROGRAM FILES (X86)\WINDOWS KITS\10\INCLUDE\10.0.16299.0\UCRT\CORECRT_WCONIO.H
C:\PROGRAM FILES (X86)\WINDOWS KITS\10\INCLUDE\10.0.16299.0\UCRT\CORECRT_WCTYPE.H
C:\PROGRAM FILES (X86)\WINDOWS KITS\10\INCLUDE\10.0.16299.0\UCRT\CORECRT_WDIRECT.H
C:\PROGRAM FILES (X86)\WINDOWS KITS\10\INCLUDE\10.0.16299.0\UCRT\CORECRT_WIO.H
C:\PROGRAM FILES (X86)\WINDOWS KITS\10\INCLUDE\10.0.16299.0\UCRT\CORECRT_SHARE.H
C:\PROGRAM FILES (X86)\WINDOWS KITS\10\INCLUDE\10.0.16299.0\UCRT\CORECRT_WPROCESS.H
C:\PROGRAM FILES (X86)\WINDOWS KITS\10\INCLUDE\10.0.16299.0\UCRT\CORECRT_WTIME.H
C:\PROGRAM FILES (X86)\WINDOWS KITS\10\INCLUDE\10.0.16299.0\UCRT\SYS\STAT.H
C:\PROGRAM FILES (X86)\WINDOWS KITS\10\INCLUDE\10.0.16299.0\UCRT\SYS\TYPES.H
C:\PROGRAM FILES (X86)\MICROSOFT VISUAL STUDIO\2017\COMMUNITY\VC\TOOLS\MSVC\14.16.27023\INCLUDE\NEW
C:\PROGRAM FILES (X86)\MICROSOFT VISUAL STUDIO\2017\COMMUNITY\VC\TOOLS\MSVC\14.16.27023\INCLUDE\XUTILITY
C:\PROGRAM FILES (X86)\MICROSOFT VISUAL STUDIO\2017\COMMUNITY\VC\TOOLS\MSVC\14.16.27023\INCLUDE\UTILITY
C:\PROGRAM FILES (X86)\MICROSOFT VISUAL STUDIO\2017\COMMUNITY\VC\TOOLS\MSVC\14.16.27023\INCLUDE\IOSFWD
C:\PROGRAM FILES (X86)\MICROSOFT VISUAL STUDIO\2017\COMMUNITY\VC\TOOLS\MSVC\14.16.27023\INCLUDE\XATOMIC0.H
C:\PROGRAM FILES (X86)\MICROSOFT VISUAL STUDIO\2017\COMMUNITY\VC\TOOLS\MSVC\14.16.27023\INCLUDE\INTRIN0.H
C:\PROGRAM FILES (X86)\MICROSOFT VISUAL STUDIO\2017\COMMUNITY\VC\TOOLS\MSVC\14.16.27023\INCLUDE\TYPEINFO
C:\PROGRAM FILES (X86)\MICROSOFT VISUAL STUDIO\2017\COMMUNITY\VC\TOOLS\MSVC\14.16.27023\INCLUDE\VCRUNTIME_TYPEINFO.H
C:\PROGRAM FILES (X86)\MICROSOFT VISUAL STUDIO\2017\COMMUNITY\VC\TOOLS\MSVC\14.16.27023\INCLUDE\XLOCINFO
C:\PROGRAM FILES (X86)\MICROSOFT VISUAL STUDIO\2017\COMMUNITY\VC\TOOLS\MSVC\14.16.27023\INCLUDE\XLOCINFO.H
C:\PROGRAM FILES (X86)\WINDOWS KITS\10\INCLUDE\10.0.16299.0\UCRT\CTYPE.H
C:\PROGRAM FILES (X86)\WINDOWS KITS\10\INCLUDE\10.0.16299.0\UCRT\LOCALE.H
C:\PROGRAM FILES (X86)\MICROSOFT VISUAL STUDIO\2017\COMMUNITY\VC\TOOLS\MSVC\14.16.27023\INCLUDE\MEMORY
C:\PROGRAM FILES (X86)\MICROSOFT VISUAL STUDIO\2017\COMMUNITY\VC\TOOLS\MSVC\14.16.27023\INCLUDE\XMEMORY
C:\PROGRAM FILES (X86)\MICROSOFT VISUAL STUDIO\2017\COMMUNITY\VC\TOOLS\MSVC\14.16.27023\INCLUDE\XFACET
C:\PROGRAM FILES (X86)\MICROSOFT VISUAL STUDIO\2017\COMMUNITY\VC\TOOLS\MSVC\14.16.27023\INCLUDE\SYSTEM_ERROR
C:\PROGRAM FILES (X86)\MICROSOFT VISUAL STUDIO\2017\COMMUNITY\VC\TOOLS\MSVC\14.16.27023\INCLUDE\CERRNO
C:\PROGRAM FILES (X86)\MICROSOFT VISUAL STUDIO\2017\COMMUNITY\VC\TOOLS\MSVC\14.16.27023\INCLUDE\XCALL_ONCE.H
C:\PROGRAM FILES (X86)\MICROSOFT VISUAL STUDIO\2017\COMMUNITY\VC\TOOLS\MSVC\14.16.27023\INCLUDE\XERRC.H
C:\PROGRAM FILES (X86)\WINDOWS KITS\10\INCLUDE\10.0.16299.0\UCRT\SHARE.H
D:\WORKSPACE\PROJECTS\PONG\PONG\LIB\SFML-2.5.1\INCLUDE\SFML\GRAPHICS.HPP
D:\WORKSPACE\PROJECTS\PONG\PONG\LIB\SFML-2.5.1\INCLUDE\SFML\WINDOW.HPP
D:\WORKSPACE\PROJECTS\PONG\PONG\LIB\SFML-2.5.1\INCLUDE\SFML\SYSTEM.HPP
D:\WORKSPACE\PROJECTS\PONG\PONG\LIB\SFML-2.5.1\INCLUDE\SFML\CONFIG.HPP
D:\WORKSPACE\PROJECTS\PONG\PONG\LIB\SFML-2.5.1\INCLUDE\SFML\SYSTEM\CLOCK.HPP
D:\WORKSPACE\PROJECTS\PONG\PONG\LIB\SFML-2.5.1\INCLUDE\SFML\SYSTEM\EXPORT.HPP
D:\WORKSPACE\PROJECTS\PONG\PONG\LIB\SFML-2.5.1\INCLUDE\SFML\SYSTEM\TIME.HPP
D:\WORKSPACE\PROJECTS\PONG\PONG\LIB\SFML-2.5.1\INCLUDE\SFML\SYSTEM\ERR.HPP
D:\WORKSPACE\PROJECTS\PONG\PONG\LIB\SFML-2.5.1\INCLUDE\SFML\SYSTEM\FILEINPUTSTREAM.HPP
D:\WORKSPACE\PROJECTS\PONG\PONG\LIB\SFML-2.5.1\INCLUDE\SFML\SYSTEM\INPUTSTREAM.HPP
D:\WORKSPACE\PROJECTS\PONG\PONG\LIB\SFML-2.5.1\INCLUDE\SFML\SYSTEM\NONCOPYABLE.HPP
C:\PROGRAM FILES (X86)\MICROSOFT VISUAL STUDIO\2017\COMMUNITY\VC\TOOLS\MSVC\14.16.27023\INCLUDE\STRING
C:\PROGRAM FILES (X86)\MICROSOFT VISUAL STUDIO\2017\COMMUNITY\VC\TOOLS\MSVC\14.16.27023\INCLUDE\XSTRING_INSERT.H
D:\WORKSPACE\PROJECTS\PONG\PONG\LIB\SFML-2.5.1\INCLUDE\SFML\SYSTEM\LOCK.HPP
D:\WORKSPACE\PROJECTS\PONG\PONG\LIB\SFML-2.5.1\INCLUDE\SFML\SYSTEM\MEMORYINPUTSTREAM.HPP
D:\WORKSPACE\PROJECTS\PONG\PONG\LIB\SFML-2.5.1\INCLUDE\SFML\SYSTEM\MUTEX.HPP
D:\WORKSPACE\PROJECTS\PONG\PONG\LIB\SFML-2.5.1\INCLUDE\SFML\SYSTEM\SLEEP.HPP
D:\WORKSPACE\PROJECTS\PONG\PONG\LIB\SFML-2.5.1\INCLUDE\SFML\SYSTEM\STRING.HPP
D:\WORKSPACE\PROJECTS\PONG\PONG\LIB\SFML-2.5.1\INCLUDE\SFML\SYSTEM\UTF.HPP
C:\PROGRAM FILES (X86)\MICROSOFT VISUAL STUDIO\2017\COMMUNITY\VC\TOOLS\MSVC\14.16.27023\INCLUDE\ALGORITHM
C:\PROGRAM FILES (X86)\MICROSOFT VISUAL STUDIO\2017\COMMUNITY\VC\TOOLS\MSVC\14.16.27023\INCLUDE\LOCALE
C:\PROGRAM FILES (X86)\MICROSOFT VISUAL STUDIO\2017\COMMUNITY\VC\TOOLS\MSVC\14.16.27023\INCLUDE\XLOCBUF
C:\PROGRAM FILES (X86)\MICROSOFT VISUAL STUDIO\2017\COMMUNITY\VC\TOOLS\MSVC\14.16.27023\INCLUDE\XLOCMES
C:\PROGRAM FILES (X86)\MICROSOFT VISUAL STUDIO\2017\COMMUNITY\VC\TOOLS\MSVC\14.16.27023\INCLUDE\XLOCMON
C:\PROGRAM FILES (X86)\MICROSOFT VISUAL STUDIO\2017\COMMUNITY\VC\TOOLS\MSVC\14.16.27023\INCLUDE\XLOCTIME
C:\PROGRAM FILES (X86)\MICROSOFT VISUAL STUDIO\2017\COMMUNITY\VC\TOOLS\MSVC\14.16.27023\INCLUDE\CTIME
C:\PROGRAM FILES (X86)\WINDOWS KITS\10\INCLUDE\10.0.16299.0\UCRT\TIME.H
D:\WORKSPACE\PROJECTS\PONG\PONG\LIB\SFML-2.5.1\INCLUDE\SFML\SYSTEM\UTF.INL
C:\PROGRAM FILES (X86)\MICROSOFT VISUAL STUDIO\2017\COMMUNITY\VC\TOOLS\MSVC\14.16.27023\INCLUDE\ITERATOR
D:\WORKSPACE\PROJECTS\PONG\PONG\LIB\SFML-2.5.1\INCLUDE\SFML\SYSTEM\STRING.INL
D:\WORKSPACE\PROJECTS\PONG\PONG\LIB\SFML-2.5.1\INCLUDE\SFML\SYSTEM\THREAD.HPP
D:\WORKSPACE\PROJECTS\PONG\PONG\LIB\SFML-2.5.1\INCLUDE\SFML\SYSTEM\THREAD.INL
D:\WORKSPACE\PROJECTS\PONG\PONG\LIB\SFML-2.5.1\INCLUDE\SFML\SYSTEM\THREADLOCAL.HPP
D:\WORKSPACE\PROJECTS\PONG\PONG\LIB\SFML-2.5.1\INCLUDE\SFML\SYSTEM\THREADLOCALPTR.HPP
D:\WORKSPACE\PROJECTS\PONG\PONG\LIB\SFML-2.5.1\INCLUDE\SFML\SYSTEM\THREADLOCALPTR.INL
D:\WORKSPACE\PROJECTS\PONG\PONG\LIB\SFML-2.5.1\INCLUDE\SFML\SYSTEM\VECTOR2.HPP
D:\WORKSPACE\PROJECTS\PONG\PONG\LIB\SFML-2.5.1\INCLUDE\SFML\SYSTEM\VECTOR2.INL
D:\WORKSPACE\PROJECTS\PONG\PONG\LIB\SFML-2.5.1\INCLUDE\SFML\SYSTEM\VECTOR3.HPP
D:\WORKSPACE\PROJECTS\PONG\PONG\LIB\SFML-2.5.1\INCLUDE\SFML\SYSTEM\VECTOR3.INL
D:\WORKSPACE\PROJECTS\PONG\PONG\LIB\SFML-2.5.1\INCLUDE\SFML\WINDOW\CLIPBOARD.HPP
D:\WORKSPACE\PROJECTS\PONG\PONG\LIB\SFML-2.5.1\INCLUDE\SFML\WINDOW\EXPORT.HPP
D:\WORKSPACE\PROJECTS\PONG\PONG\LIB\SFML-2.5.1\INCLUDE\SFML\WINDOW\CONTEXT.HPP
D:\WORKSPACE\PROJECTS\PONG\PONG\LIB\SFML-2.5.1\INCLUDE\SFML\WINDOW\GLRESOURCE.HPP
D:\WORKSPACE\PROJECTS\PONG\PONG\LIB\SFML-2.5.1\INCLUDE\SFML\WINDOW\CONTEXTSETTINGS.HPP
D:\WORKSPACE\PROJECTS\PONG\PONG\LIB\SFML-2.5.1\INCLUDE\SFML\WINDOW\CURSOR.HPP
D:\WORKSPACE\PROJECTS\PONG\PONG\LIB\SFML-2.5.1\INCLUDE\SFML\WINDOW\EVENT.HPP
D:\WORKSPACE\PROJECTS\PONG\PONG\LIB\SFML-2.5.1\INCLUDE\SFML\WINDOW\JOYSTICK.HPP
D:\WORKSPACE\PROJECTS\PONG\PONG\LIB\SFML-2.5.1\INCLUDE\SFML\WINDOW\KEYBOARD.HPP
D:\WORKSPACE\PROJECTS\PONG\PONG\LIB\SFML-2.5.1\INCLUDE\SFML\WINDOW\MOUSE.HPP
D:\WORKSPACE\PROJECTS\PONG\PONG\LIB\SFML-2.5.1\INCLUDE\SFML\WINDOW\SENSOR.HPP
D:\WORKSPACE\PROJECTS\PONG\PONG\LIB\SFML-2.5.1\INCLUDE\SFML\WINDOW\TOUCH.HPP
D:\WORKSPACE\PROJECTS\PONG\PONG\LIB\SFML-2.5.1\INCLUDE\SFML\WINDOW\VIDEOMODE.HPP
C:\PROGRAM FILES (X86)\MICROSOFT VISUAL STUDIO\2017\COMMUNITY\VC\TOOLS\MSVC\14.16.27023\INCLUDE\VECTOR
D:\WORKSPACE\PROJECTS\PONG\PONG\LIB\SFML-2.5.1\INCLUDE\SFML\WINDOW\WINDOW.HPP
D:\WORKSPACE\PROJECTS\PONG\PONG\LIB\SFML-2.5.1\INCLUDE\SFML\WINDOW\WINDOWHANDLE.HPP
D:\WORKSPACE\PROJECTS\PONG\PONG\LIB\SFML-2.5.1\INCLUDE\SFML\WINDOW\WINDOWSTYLE.HPP
D:\WORKSPACE\PROJECTS\PONG\PONG\LIB\SFML-2.5.1\INCLUDE\SFML\GRAPHICS\BLENDMODE.HPP
D:\WORKSPACE\PROJECTS\PONG\PONG\LIB\SFML-2.5.1\INCLUDE\SFML\GRAPHICS\EXPORT.HPP
D:\WORKSPACE\PROJECTS\PONG\PONG\LIB\SFML-2.5.1\INCLUDE\SFML\GRAPHICS\CIRCLESHAPE.HPP
D:\WORKSPACE\PROJECTS\PONG\PONG\LIB\SFML-2.5.1\INCLUDE\SFML\GRAPHICS\SHAPE.HPP
D:\WORKSPACE\PROJECTS\PONG\PONG\LIB\SFML-2.5.1\INCLUDE\SFML\GRAPHICS\DRAWABLE.HPP
D:\WORKSPACE\PROJECTS\PONG\PONG\LIB\SFML-2.5.1\INCLUDE\SFML\GRAPHICS\RENDERSTATES.HPP
D:\WORKSPACE\PROJECTS\PONG\PONG\LIB\SFML-2.5.1\INCLUDE\SFML\GRAPHICS\TRANSFORM.HPP
D:\WORKSPACE\PROJECTS\PONG\PONG\LIB\SFML-2.5.1\INCLUDE\SFML\GRAPHICS\RECT.HPP
D:\WORKSPACE\PROJECTS\PONG\PONG\LIB\SFML-2.5.1\INCLUDE\SFML\GRAPHICS\RECT.INL
D:\WORKSPACE\PROJECTS\PONG\PONG\LIB\SFML-2.5.1\INCLUDE\SFML\GRAPHICS\TRANSFORMABLE.HPP
D:\WORKSPACE\PROJECTS\PONG\PONG\LIB\SFML-2.5.1\INCLUDE\SFML\GRAPHICS\VERTEXARRAY.HPP
D:\WORKSPACE\PROJECTS\PONG\PONG\LIB\SFML-2.5.1\INCLUDE\SFML\GRAPHICS\VERTEX.HPP
D:\WORKSPACE\PROJECTS\PONG\PONG\LIB\SFML-2.5.1\INCLUDE\SFML\GRAPHICS\COLOR.HPP
D:\WORKSPACE\PROJECTS\PONG\PONG\LIB\SFML-2.5.1\INCLUDE\SFML\GRAPHICS\PRIMITIVETYPE.HPP
D:\WORKSPACE\PROJECTS\PONG\PONG\LIB\SFML-2.5.1\INCLUDE\SFML\GRAPHICS\CONVEXSHAPE.HPP
D:\WORKSPACE\PROJECTS\PONG\PONG\LIB\SFML-2.5.1\INCLUDE\SFML\GRAPHICS\FONT.HPP
D:\WORKSPACE\PROJECTS\PONG\PONG\LIB\SFML-2.5.1\INCLUDE\SFML\GRAPHICS\GLYPH.HPP
D:\WORKSPACE\PROJECTS\PONG\PONG\LIB\SFML-2.5.1\INCLUDE\SFML\GRAPHICS\TEXTURE.HPP
D:\WORKSPACE\PROJECTS\PONG\PONG\LIB\SFML-2.5.1\INCLUDE\SFML\GRAPHICS\IMAGE.HPP
C:\PROGRAM FILES (X86)\MICROSOFT VISUAL STUDIO\2017\COMMUNITY\VC\TOOLS\MSVC\14.16.27023\INCLUDE\MAP
C:\PROGRAM FILES (X86)\MICROSOFT VISUAL STUDIO\2017\COMMUNITY\VC\TOOLS\MSVC\14.16.27023\INCLUDE\TUPLE
C:\PROGRAM FILES (X86)\MICROSOFT VISUAL STUDIO\2017\COMMUNITY\VC\TOOLS\MSVC\14.16.27023\INCLUDE\XTREE
D:\WORKSPACE\PROJECTS\PONG\PONG\LIB\SFML-2.5.1\INCLUDE\SFML\GRAPHICS\RECTANGLESHAPE.HPP
D:\WORKSPACE\PROJECTS\PONG\PONG\LIB\SFML-2.5.1\INCLUDE\SFML\GRAPHICS\RENDERTARGET.HPP
D:\WORKSPACE\PROJECTS\PONG\PONG\LIB\SFML-2.5.1\INCLUDE\SFML\GRAPHICS\VIEW.HPP
D:\WORKSPACE\PROJECTS\PONG\PONG\LIB\SFML-2.5.1\INCLUDE\SFML\GRAPHICS\RENDERTEXTURE.HPP
D:\WORKSPACE\PROJECTS\PONG\PONG\LIB\SFML-2.5.1\INCLUDE\SFML\GRAPHICS\RENDERWINDOW.HPP
D:\WORKSPACE\PROJECTS\PONG\PONG\LIB\SFML-2.5.1\INCLUDE\SFML\GRAPHICS\SHADER.HPP
D:\WORKSPACE\PROJECTS\PONG\PONG\LIB\SFML-2.5.1\INCLUDE\SFML\GRAPHICS\GLSL.HPP
D:\WORKSPACE\PROJECTS\PONG\PONG\LIB\SFML-2.5.1\INCLUDE\SFML\GRAPHICS\GLSL.INL
D:\WORKSPACE\PROJECTS\PONG\PONG\LIB\SFML-2.5.1\INCLUDE\SFML\GRAPHICS\SPRITE.HPP
D:\WORKSPACE\PROJECTS\PONG\PONG\LIB\SFML-2.5.1\INCLUDE\SFML\GRAPHICS\TEXT.HPP
D:\WORKSPACE\PROJECTS\PONG\PONG\LIB\SFML-2.5.1\INCLUDE\SFML\GRAPHICS\VERTEXBUFFER.HPP
D:\WORKSPACE\PROJECTS\PONG\PONG\LIB\SFML-2.5.1\INCLUDE\SFML\AUDIO.HPP
D:\WORKSPACE\PROJECTS\PONG\PONG\LIB\SFML-2.5.1\INCLUDE\SFML\AUDIO\INPUTSOUNDFILE.HPP
D:\WORKSPACE\PROJECTS\PONG\PONG\LIB\SFML-2.5.1\INCLUDE\SFML\AUDIO\EXPORT.HPP
D:\WORKSPACE\PROJECTS\PONG\PONG\LIB\SFML-2.5.1\INCLUDE\SFML\AUDIO\LISTENER.HPP
D:\WORKSPACE\PROJECTS\PONG\PONG\LIB\SFML-2.5.1\INCLUDE\SFML\AUDIO\MUSIC.HPP
D:\WORKSPACE\PROJECTS\PONG\PONG\LIB\SFML-2.5.1\INCLUDE\SFML\AUDIO\SOUNDSTREAM.HPP
D:\WORKSPACE\PROJECTS\PONG\PONG\LIB\SFML-2.5.1\INCLUDE\SFML\AUDIO\SOUNDSOURCE.HPP
D:\WORKSPACE\PROJECTS\PONG\PONG\LIB\SFML-2.5.1\INCLUDE\SFML\AUDIO\ALRESOURCE.HPP
D:\WORKSPACE\PROJECTS\PONG\PONG\LIB\SFML-2.5.1\INCLUDE\SFML\AUDIO\OUTPUTSOUNDFILE.HPP
D:\WORKSPACE\PROJECTS\PONG\PONG\LIB\SFML-2.5.1\INCLUDE\SFML\AUDIO\SOUND.HPP
D:\WORKSPACE\PROJECTS\PONG\PONG\LIB\SFML-2.5.1\INCLUDE\SFML\AUDIO\SOUNDBUFFER.HPP
C:\PROGRAM FILES (X86)\MICROSOFT VISUAL STUDIO\2017\COMMUNITY\VC\TOOLS\MSVC\14.16.27023\INCLUDE\SET
D:\WORKSPACE\PROJECTS\PONG\PONG\LIB\SFML-2.5.1\INCLUDE\SFML\AUDIO\SOUNDBUFFERRECORDER.HPP
D:\WORKSPACE\PROJECTS\PONG\PONG\LIB\SFML-2.5.1\INCLUDE\SFML\AUDIO\SOUNDRECORDER.HPP
D:\WORKSPACE\PROJECTS\PONG\PONG\LIB\SFML-2.5.1\INCLUDE\SFML\AUDIO\SOUNDFILEFACTORY.HPP
D:\WORKSPACE\PROJECTS\PONG\PONG\LIB\SFML-2.5.1\INCLUDE\SFML\AUDIO\SOUNDFILEFACTORY.INL
D:\WORKSPACE\PROJECTS\PONG\PONG\LIB\SFML-2.5.1\INCLUDE\SFML\AUDIO\SOUNDFILEREADER.HPP
D:\WORKSPACE\PROJECTS\PONG\PONG\LIB\SFML-2.5.1\INCLUDE\SFML\AUDIO\SOUNDFILEWRITER.HPP
D:\WORKSPACE\PROJECTS\PONG\PONG\UTIL.H
